%YAML 1.1
%TAG !u! tag:unity3d.com,2011:
--- !u!1 &1507494914998382875
GameObject:
  m_ObjectHideFlags: 0
  m_CorrespondingSourceObject: {fileID: 0}
  m_PrefabInstance: {fileID: 0}
  m_PrefabAsset: {fileID: 0}
  serializedVersion: 6
  m_Component:
  - component: {fileID: 4144846177072919320}
  - component: {fileID: 587419804422447173}
  - component: {fileID: 4191539095247928119}
  m_Layer: 0
  m_Name: Layer1
  m_TagString: Untagged
  m_Icon: {fileID: 0}
  m_NavMeshLayer: 0
  m_StaticEditorFlags: 0
  m_IsActive: 1
--- !u!4 &4144846177072919320
Transform:
  m_ObjectHideFlags: 0
  m_CorrespondingSourceObject: {fileID: 0}
  m_PrefabInstance: {fileID: 0}
  m_PrefabAsset: {fileID: 0}
  m_GameObject: {fileID: 1507494914998382875}
  m_LocalRotation: {x: -0, y: -0, z: -0, w: 1}
  m_LocalPosition: {x: 0, y: 0, z: 0}
  m_LocalScale: {x: 1, y: 1, z: 1}
  m_ConstrainProportionsScale: 0
  m_Children: []
  m_Father: {fileID: 2206751280664724649}
  m_RootOrder: 0
  m_LocalEulerAnglesHint: {x: 0, y: 0, z: 0}
--- !u!1839735485 &587419804422447173
Tilemap:
  m_ObjectHideFlags: 0
  m_CorrespondingSourceObject: {fileID: 0}
  m_PrefabInstance: {fileID: 0}
  m_PrefabAsset: {fileID: 0}
  m_GameObject: {fileID: 1507494914998382875}
  m_Enabled: 1
  m_Tiles:
  - first: {x: -2, y: -8, z: 0}
    second:
      serializedVersion: 2
      m_TileIndex: 100
      m_TileSpriteIndex: 100
      m_TileMatrixIndex: 0
      m_TileColorIndex: 0
      m_TileObjectToInstantiateIndex: 65535
      dummyAlignment: 0
      m_AllTileFlags: 1073741825
  - first: {x: -1, y: -8, z: 0}
    second:
      serializedVersion: 2
      m_TileIndex: 101
      m_TileSpriteIndex: 101
      m_TileMatrixIndex: 0
      m_TileColorIndex: 0
      m_TileObjectToInstantiateIndex: 65535
      dummyAlignment: 0
      m_AllTileFlags: 1073741825
  - first: {x: 0, y: -8, z: 0}
    second:
      serializedVersion: 2
      m_TileIndex: 102
      m_TileSpriteIndex: 102
      m_TileMatrixIndex: 0
      m_TileColorIndex: 0
      m_TileObjectToInstantiateIndex: 65535
      dummyAlignment: 0
      m_AllTileFlags: 1073741825
  - first: {x: 1, y: -8, z: 0}
    second:
      serializedVersion: 2
      m_TileIndex: 103
      m_TileSpriteIndex: 103
      m_TileMatrixIndex: 0
      m_TileColorIndex: 0
      m_TileObjectToInstantiateIndex: 65535
      dummyAlignment: 0
      m_AllTileFlags: 1073741825
  - first: {x: 2, y: -8, z: 0}
    second:
      serializedVersion: 2
      m_TileIndex: 104
      m_TileSpriteIndex: 104
      m_TileMatrixIndex: 0
      m_TileColorIndex: 0
      m_TileObjectToInstantiateIndex: 65535
      dummyAlignment: 0
      m_AllTileFlags: 1073741825
  - first: {x: 3, y: -8, z: 0}
    second:
      serializedVersion: 2
      m_TileIndex: 105
      m_TileSpriteIndex: 105
      m_TileMatrixIndex: 0
      m_TileColorIndex: 0
      m_TileObjectToInstantiateIndex: 65535
      dummyAlignment: 0
      m_AllTileFlags: 1073741825
  - first: {x: 4, y: -8, z: 0}
    second:
      serializedVersion: 2
      m_TileIndex: 106
      m_TileSpriteIndex: 106
      m_TileMatrixIndex: 0
      m_TileColorIndex: 0
      m_TileObjectToInstantiateIndex: 65535
      dummyAlignment: 0
      m_AllTileFlags: 1073741825
  - first: {x: 5, y: -8, z: 0}
    second:
      serializedVersion: 2
      m_TileIndex: 107
      m_TileSpriteIndex: 107
      m_TileMatrixIndex: 0
      m_TileColorIndex: 0
      m_TileObjectToInstantiateIndex: 65535
      dummyAlignment: 0
      m_AllTileFlags: 1073741825
  - first: {x: -2, y: -7, z: 0}
    second:
      serializedVersion: 2
      m_TileIndex: 90
      m_TileSpriteIndex: 90
      m_TileMatrixIndex: 0
      m_TileColorIndex: 0
      m_TileObjectToInstantiateIndex: 65535
      dummyAlignment: 0
      m_AllTileFlags: 1073741825
  - first: {x: -1, y: -7, z: 0}
    second:
      serializedVersion: 2
      m_TileIndex: 91
      m_TileSpriteIndex: 91
      m_TileMatrixIndex: 0
      m_TileColorIndex: 0
      m_TileObjectToInstantiateIndex: 65535
      dummyAlignment: 0
      m_AllTileFlags: 1073741825
  - first: {x: 0, y: -7, z: 0}
    second:
      serializedVersion: 2
      m_TileIndex: 92
      m_TileSpriteIndex: 92
      m_TileMatrixIndex: 0
      m_TileColorIndex: 0
      m_TileObjectToInstantiateIndex: 65535
      dummyAlignment: 0
      m_AllTileFlags: 1073741825
  - first: {x: 1, y: -7, z: 0}
    second:
      serializedVersion: 2
      m_TileIndex: 93
      m_TileSpriteIndex: 93
      m_TileMatrixIndex: 0
      m_TileColorIndex: 0
      m_TileObjectToInstantiateIndex: 65535
      dummyAlignment: 0
      m_AllTileFlags: 1073741825
  - first: {x: 2, y: -7, z: 0}
    second:
      serializedVersion: 2
      m_TileIndex: 94
      m_TileSpriteIndex: 94
      m_TileMatrixIndex: 0
      m_TileColorIndex: 0
      m_TileObjectToInstantiateIndex: 65535
      dummyAlignment: 0
      m_AllTileFlags: 1073741825
  - first: {x: 3, y: -7, z: 0}
    second:
      serializedVersion: 2
      m_TileIndex: 95
      m_TileSpriteIndex: 95
      m_TileMatrixIndex: 0
      m_TileColorIndex: 0
      m_TileObjectToInstantiateIndex: 65535
      dummyAlignment: 0
      m_AllTileFlags: 1073741825
  - first: {x: 4, y: -7, z: 0}
    second:
      serializedVersion: 2
      m_TileIndex: 96
      m_TileSpriteIndex: 96
      m_TileMatrixIndex: 0
      m_TileColorIndex: 0
      m_TileObjectToInstantiateIndex: 65535
      dummyAlignment: 0
      m_AllTileFlags: 1073741825
  - first: {x: 5, y: -7, z: 0}
    second:
      serializedVersion: 2
      m_TileIndex: 97
      m_TileSpriteIndex: 97
      m_TileMatrixIndex: 0
      m_TileColorIndex: 0
      m_TileObjectToInstantiateIndex: 65535
      dummyAlignment: 0
      m_AllTileFlags: 1073741825
  - first: {x: 6, y: -7, z: 0}
    second:
      serializedVersion: 2
      m_TileIndex: 98
      m_TileSpriteIndex: 98
      m_TileMatrixIndex: 0
      m_TileColorIndex: 0
      m_TileObjectToInstantiateIndex: 65535
      dummyAlignment: 0
      m_AllTileFlags: 1073741825
  - first: {x: 7, y: -7, z: 0}
    second:
      serializedVersion: 2
      m_TileIndex: 99
      m_TileSpriteIndex: 99
      m_TileMatrixIndex: 0
      m_TileColorIndex: 0
      m_TileObjectToInstantiateIndex: 65535
      dummyAlignment: 0
      m_AllTileFlags: 1073741825
  - first: {x: -2, y: -6, z: 0}
    second:
      serializedVersion: 2
      m_TileIndex: 80
      m_TileSpriteIndex: 80
      m_TileMatrixIndex: 0
      m_TileColorIndex: 0
      m_TileObjectToInstantiateIndex: 65535
      dummyAlignment: 0
      m_AllTileFlags: 1073741825
  - first: {x: -1, y: -6, z: 0}
    second:
      serializedVersion: 2
      m_TileIndex: 81
      m_TileSpriteIndex: 81
      m_TileMatrixIndex: 0
      m_TileColorIndex: 0
      m_TileObjectToInstantiateIndex: 65535
      dummyAlignment: 0
      m_AllTileFlags: 1073741825
  - first: {x: 0, y: -6, z: 0}
    second:
      serializedVersion: 2
      m_TileIndex: 82
      m_TileSpriteIndex: 82
      m_TileMatrixIndex: 0
      m_TileColorIndex: 0
      m_TileObjectToInstantiateIndex: 65535
      dummyAlignment: 0
      m_AllTileFlags: 1073741825
  - first: {x: 1, y: -6, z: 0}
    second:
      serializedVersion: 2
      m_TileIndex: 83
      m_TileSpriteIndex: 83
      m_TileMatrixIndex: 0
      m_TileColorIndex: 0
      m_TileObjectToInstantiateIndex: 65535
      dummyAlignment: 0
      m_AllTileFlags: 1073741825
  - first: {x: 2, y: -6, z: 0}
    second:
      serializedVersion: 2
      m_TileIndex: 84
      m_TileSpriteIndex: 84
      m_TileMatrixIndex: 0
      m_TileColorIndex: 0
      m_TileObjectToInstantiateIndex: 65535
      dummyAlignment: 0
      m_AllTileFlags: 1073741825
  - first: {x: 3, y: -6, z: 0}
    second:
      serializedVersion: 2
      m_TileIndex: 85
      m_TileSpriteIndex: 85
      m_TileMatrixIndex: 0
      m_TileColorIndex: 0
      m_TileObjectToInstantiateIndex: 65535
      dummyAlignment: 0
      m_AllTileFlags: 1073741825
  - first: {x: 4, y: -6, z: 0}
    second:
      serializedVersion: 2
      m_TileIndex: 86
      m_TileSpriteIndex: 86
      m_TileMatrixIndex: 0
      m_TileColorIndex: 0
      m_TileObjectToInstantiateIndex: 65535
      dummyAlignment: 0
      m_AllTileFlags: 1073741825
  - first: {x: 5, y: -6, z: 0}
    second:
      serializedVersion: 2
      m_TileIndex: 87
      m_TileSpriteIndex: 87
      m_TileMatrixIndex: 0
      m_TileColorIndex: 0
      m_TileObjectToInstantiateIndex: 65535
      dummyAlignment: 0
      m_AllTileFlags: 1073741825
  - first: {x: 6, y: -6, z: 0}
    second:
      serializedVersion: 2
      m_TileIndex: 88
      m_TileSpriteIndex: 88
      m_TileMatrixIndex: 0
      m_TileColorIndex: 0
      m_TileObjectToInstantiateIndex: 65535
      dummyAlignment: 0
      m_AllTileFlags: 1073741825
  - first: {x: 7, y: -6, z: 0}
    second:
      serializedVersion: 2
      m_TileIndex: 89
      m_TileSpriteIndex: 89
      m_TileMatrixIndex: 0
      m_TileColorIndex: 0
      m_TileObjectToInstantiateIndex: 65535
      dummyAlignment: 0
      m_AllTileFlags: 1073741825
  - first: {x: -2, y: -5, z: 0}
    second:
      serializedVersion: 2
      m_TileIndex: 70
      m_TileSpriteIndex: 70
      m_TileMatrixIndex: 0
      m_TileColorIndex: 0
      m_TileObjectToInstantiateIndex: 65535
      dummyAlignment: 0
      m_AllTileFlags: 1073741825
  - first: {x: -1, y: -5, z: 0}
    second:
      serializedVersion: 2
      m_TileIndex: 71
      m_TileSpriteIndex: 71
      m_TileMatrixIndex: 0
      m_TileColorIndex: 0
      m_TileObjectToInstantiateIndex: 65535
      dummyAlignment: 0
      m_AllTileFlags: 1073741825
  - first: {x: 0, y: -5, z: 0}
    second:
      serializedVersion: 2
      m_TileIndex: 72
      m_TileSpriteIndex: 72
      m_TileMatrixIndex: 0
      m_TileColorIndex: 0
      m_TileObjectToInstantiateIndex: 65535
      dummyAlignment: 0
      m_AllTileFlags: 1073741825
  - first: {x: 1, y: -5, z: 0}
    second:
      serializedVersion: 2
      m_TileIndex: 73
      m_TileSpriteIndex: 73
      m_TileMatrixIndex: 0
      m_TileColorIndex: 0
      m_TileObjectToInstantiateIndex: 65535
      dummyAlignment: 0
      m_AllTileFlags: 1073741825
  - first: {x: 2, y: -5, z: 0}
    second:
      serializedVersion: 2
      m_TileIndex: 74
      m_TileSpriteIndex: 74
      m_TileMatrixIndex: 0
      m_TileColorIndex: 0
      m_TileObjectToInstantiateIndex: 65535
      dummyAlignment: 0
      m_AllTileFlags: 1073741825
  - first: {x: 3, y: -5, z: 0}
    second:
      serializedVersion: 2
      m_TileIndex: 75
      m_TileSpriteIndex: 75
      m_TileMatrixIndex: 0
      m_TileColorIndex: 0
      m_TileObjectToInstantiateIndex: 65535
      dummyAlignment: 0
      m_AllTileFlags: 1073741825
  - first: {x: 4, y: -5, z: 0}
    second:
      serializedVersion: 2
      m_TileIndex: 76
      m_TileSpriteIndex: 76
      m_TileMatrixIndex: 0
      m_TileColorIndex: 0
      m_TileObjectToInstantiateIndex: 65535
      dummyAlignment: 0
      m_AllTileFlags: 1073741825
  - first: {x: 5, y: -5, z: 0}
    second:
      serializedVersion: 2
      m_TileIndex: 77
      m_TileSpriteIndex: 77
      m_TileMatrixIndex: 0
      m_TileColorIndex: 0
      m_TileObjectToInstantiateIndex: 65535
      dummyAlignment: 0
      m_AllTileFlags: 1073741825
  - first: {x: 6, y: -5, z: 0}
    second:
      serializedVersion: 2
      m_TileIndex: 78
      m_TileSpriteIndex: 78
      m_TileMatrixIndex: 0
      m_TileColorIndex: 0
      m_TileObjectToInstantiateIndex: 65535
      dummyAlignment: 0
      m_AllTileFlags: 1073741825
  - first: {x: 7, y: -5, z: 0}
    second:
      serializedVersion: 2
      m_TileIndex: 79
      m_TileSpriteIndex: 79
      m_TileMatrixIndex: 0
      m_TileColorIndex: 0
      m_TileObjectToInstantiateIndex: 65535
      dummyAlignment: 0
      m_AllTileFlags: 1073741825
  - first: {x: -2, y: -4, z: 0}
    second:
      serializedVersion: 2
      m_TileIndex: 60
      m_TileSpriteIndex: 60
      m_TileMatrixIndex: 0
      m_TileColorIndex: 0
      m_TileObjectToInstantiateIndex: 65535
      dummyAlignment: 0
      m_AllTileFlags: 1073741825
  - first: {x: -1, y: -4, z: 0}
    second:
      serializedVersion: 2
      m_TileIndex: 61
      m_TileSpriteIndex: 61
      m_TileMatrixIndex: 0
      m_TileColorIndex: 0
      m_TileObjectToInstantiateIndex: 65535
      dummyAlignment: 0
      m_AllTileFlags: 1073741825
  - first: {x: 0, y: -4, z: 0}
    second:
      serializedVersion: 2
      m_TileIndex: 62
      m_TileSpriteIndex: 62
      m_TileMatrixIndex: 0
      m_TileColorIndex: 0
      m_TileObjectToInstantiateIndex: 65535
      dummyAlignment: 0
      m_AllTileFlags: 1073741825
  - first: {x: 1, y: -4, z: 0}
    second:
      serializedVersion: 2
      m_TileIndex: 63
      m_TileSpriteIndex: 63
      m_TileMatrixIndex: 0
      m_TileColorIndex: 0
      m_TileObjectToInstantiateIndex: 65535
      dummyAlignment: 0
      m_AllTileFlags: 1073741825
  - first: {x: 2, y: -4, z: 0}
    second:
      serializedVersion: 2
      m_TileIndex: 64
      m_TileSpriteIndex: 64
      m_TileMatrixIndex: 0
      m_TileColorIndex: 0
      m_TileObjectToInstantiateIndex: 65535
      dummyAlignment: 0
      m_AllTileFlags: 1073741825
  - first: {x: 3, y: -4, z: 0}
    second:
      serializedVersion: 2
      m_TileIndex: 65
      m_TileSpriteIndex: 65
      m_TileMatrixIndex: 0
      m_TileColorIndex: 0
      m_TileObjectToInstantiateIndex: 65535
      dummyAlignment: 0
      m_AllTileFlags: 1073741825
  - first: {x: 4, y: -4, z: 0}
    second:
      serializedVersion: 2
      m_TileIndex: 66
      m_TileSpriteIndex: 66
      m_TileMatrixIndex: 0
      m_TileColorIndex: 0
      m_TileObjectToInstantiateIndex: 65535
      dummyAlignment: 0
      m_AllTileFlags: 1073741825
  - first: {x: 5, y: -4, z: 0}
    second:
      serializedVersion: 2
      m_TileIndex: 67
      m_TileSpriteIndex: 67
      m_TileMatrixIndex: 0
      m_TileColorIndex: 0
      m_TileObjectToInstantiateIndex: 65535
      dummyAlignment: 0
      m_AllTileFlags: 1073741825
  - first: {x: 6, y: -4, z: 0}
    second:
      serializedVersion: 2
      m_TileIndex: 68
      m_TileSpriteIndex: 68
      m_TileMatrixIndex: 0
      m_TileColorIndex: 0
      m_TileObjectToInstantiateIndex: 65535
      dummyAlignment: 0
      m_AllTileFlags: 1073741825
  - first: {x: 7, y: -4, z: 0}
    second:
      serializedVersion: 2
      m_TileIndex: 69
      m_TileSpriteIndex: 69
      m_TileMatrixIndex: 0
      m_TileColorIndex: 0
      m_TileObjectToInstantiateIndex: 65535
      dummyAlignment: 0
      m_AllTileFlags: 1073741825
  - first: {x: -2, y: -3, z: 0}
    second:
      serializedVersion: 2
      m_TileIndex: 50
      m_TileSpriteIndex: 50
      m_TileMatrixIndex: 0
      m_TileColorIndex: 0
      m_TileObjectToInstantiateIndex: 65535
      dummyAlignment: 0
      m_AllTileFlags: 1073741825
  - first: {x: -1, y: -3, z: 0}
    second:
      serializedVersion: 2
      m_TileIndex: 51
      m_TileSpriteIndex: 51
      m_TileMatrixIndex: 0
      m_TileColorIndex: 0
      m_TileObjectToInstantiateIndex: 65535
      dummyAlignment: 0
      m_AllTileFlags: 1073741825
  - first: {x: 0, y: -3, z: 0}
    second:
      serializedVersion: 2
      m_TileIndex: 52
      m_TileSpriteIndex: 52
      m_TileMatrixIndex: 0
      m_TileColorIndex: 0
      m_TileObjectToInstantiateIndex: 65535
      dummyAlignment: 0
      m_AllTileFlags: 1073741825
  - first: {x: 1, y: -3, z: 0}
    second:
      serializedVersion: 2
      m_TileIndex: 53
      m_TileSpriteIndex: 53
      m_TileMatrixIndex: 0
      m_TileColorIndex: 0
      m_TileObjectToInstantiateIndex: 65535
      dummyAlignment: 0
      m_AllTileFlags: 1073741825
  - first: {x: 2, y: -3, z: 0}
    second:
      serializedVersion: 2
      m_TileIndex: 54
      m_TileSpriteIndex: 54
      m_TileMatrixIndex: 0
      m_TileColorIndex: 0
      m_TileObjectToInstantiateIndex: 65535
      dummyAlignment: 0
      m_AllTileFlags: 1073741825
  - first: {x: 3, y: -3, z: 0}
    second:
      serializedVersion: 2
      m_TileIndex: 55
      m_TileSpriteIndex: 55
      m_TileMatrixIndex: 0
      m_TileColorIndex: 0
      m_TileObjectToInstantiateIndex: 65535
      dummyAlignment: 0
      m_AllTileFlags: 1073741825
  - first: {x: 4, y: -3, z: 0}
    second:
      serializedVersion: 2
      m_TileIndex: 56
      m_TileSpriteIndex: 56
      m_TileMatrixIndex: 0
      m_TileColorIndex: 0
      m_TileObjectToInstantiateIndex: 65535
      dummyAlignment: 0
      m_AllTileFlags: 1073741825
  - first: {x: 5, y: -3, z: 0}
    second:
      serializedVersion: 2
      m_TileIndex: 57
      m_TileSpriteIndex: 57
      m_TileMatrixIndex: 0
      m_TileColorIndex: 0
      m_TileObjectToInstantiateIndex: 65535
      dummyAlignment: 0
      m_AllTileFlags: 1073741825
  - first: {x: 6, y: -3, z: 0}
    second:
      serializedVersion: 2
      m_TileIndex: 58
      m_TileSpriteIndex: 58
      m_TileMatrixIndex: 0
      m_TileColorIndex: 0
      m_TileObjectToInstantiateIndex: 65535
      dummyAlignment: 0
      m_AllTileFlags: 1073741825
  - first: {x: 7, y: -3, z: 0}
    second:
      serializedVersion: 2
      m_TileIndex: 59
      m_TileSpriteIndex: 59
      m_TileMatrixIndex: 0
      m_TileColorIndex: 0
      m_TileObjectToInstantiateIndex: 65535
      dummyAlignment: 0
      m_AllTileFlags: 1073741825
  - first: {x: -2, y: -2, z: 0}
    second:
      serializedVersion: 2
      m_TileIndex: 40
      m_TileSpriteIndex: 40
      m_TileMatrixIndex: 0
      m_TileColorIndex: 0
      m_TileObjectToInstantiateIndex: 65535
      dummyAlignment: 0
      m_AllTileFlags: 1073741825
  - first: {x: -1, y: -2, z: 0}
    second:
      serializedVersion: 2
      m_TileIndex: 41
      m_TileSpriteIndex: 41
      m_TileMatrixIndex: 0
      m_TileColorIndex: 0
      m_TileObjectToInstantiateIndex: 65535
      dummyAlignment: 0
      m_AllTileFlags: 1073741825
  - first: {x: 0, y: -2, z: 0}
    second:
      serializedVersion: 2
      m_TileIndex: 42
      m_TileSpriteIndex: 42
      m_TileMatrixIndex: 0
      m_TileColorIndex: 0
      m_TileObjectToInstantiateIndex: 65535
      dummyAlignment: 0
      m_AllTileFlags: 1073741825
  - first: {x: 1, y: -2, z: 0}
    second:
      serializedVersion: 2
      m_TileIndex: 43
      m_TileSpriteIndex: 43
      m_TileMatrixIndex: 0
      m_TileColorIndex: 0
      m_TileObjectToInstantiateIndex: 65535
      dummyAlignment: 0
      m_AllTileFlags: 1073741825
  - first: {x: 2, y: -2, z: 0}
    second:
      serializedVersion: 2
      m_TileIndex: 44
      m_TileSpriteIndex: 44
      m_TileMatrixIndex: 0
      m_TileColorIndex: 0
      m_TileObjectToInstantiateIndex: 65535
      dummyAlignment: 0
      m_AllTileFlags: 1073741825
  - first: {x: 3, y: -2, z: 0}
    second:
      serializedVersion: 2
      m_TileIndex: 45
      m_TileSpriteIndex: 45
      m_TileMatrixIndex: 0
      m_TileColorIndex: 0
      m_TileObjectToInstantiateIndex: 65535
      dummyAlignment: 0
      m_AllTileFlags: 1073741825
  - first: {x: 4, y: -2, z: 0}
    second:
      serializedVersion: 2
      m_TileIndex: 46
      m_TileSpriteIndex: 46
      m_TileMatrixIndex: 0
      m_TileColorIndex: 0
      m_TileObjectToInstantiateIndex: 65535
      dummyAlignment: 0
      m_AllTileFlags: 1073741825
  - first: {x: 5, y: -2, z: 0}
    second:
      serializedVersion: 2
      m_TileIndex: 47
      m_TileSpriteIndex: 47
      m_TileMatrixIndex: 0
      m_TileColorIndex: 0
      m_TileObjectToInstantiateIndex: 65535
      dummyAlignment: 0
      m_AllTileFlags: 1073741825
  - first: {x: 6, y: -2, z: 0}
    second:
      serializedVersion: 2
      m_TileIndex: 48
      m_TileSpriteIndex: 48
      m_TileMatrixIndex: 0
      m_TileColorIndex: 0
      m_TileObjectToInstantiateIndex: 65535
      dummyAlignment: 0
      m_AllTileFlags: 1073741825
  - first: {x: 7, y: -2, z: 0}
    second:
      serializedVersion: 2
      m_TileIndex: 49
      m_TileSpriteIndex: 49
      m_TileMatrixIndex: 0
      m_TileColorIndex: 0
      m_TileObjectToInstantiateIndex: 65535
      dummyAlignment: 0
      m_AllTileFlags: 1073741825
  - first: {x: -2, y: -1, z: 0}
    second:
      serializedVersion: 2
      m_TileIndex: 30
      m_TileSpriteIndex: 30
      m_TileMatrixIndex: 0
      m_TileColorIndex: 0
      m_TileObjectToInstantiateIndex: 65535
      dummyAlignment: 0
      m_AllTileFlags: 1073741825
  - first: {x: -1, y: -1, z: 0}
    second:
      serializedVersion: 2
      m_TileIndex: 31
      m_TileSpriteIndex: 31
      m_TileMatrixIndex: 0
      m_TileColorIndex: 0
      m_TileObjectToInstantiateIndex: 65535
      dummyAlignment: 0
      m_AllTileFlags: 1073741825
  - first: {x: 0, y: -1, z: 0}
    second:
      serializedVersion: 2
      m_TileIndex: 32
      m_TileSpriteIndex: 32
      m_TileMatrixIndex: 0
      m_TileColorIndex: 0
      m_TileObjectToInstantiateIndex: 65535
      dummyAlignment: 0
      m_AllTileFlags: 1073741825
  - first: {x: 1, y: -1, z: 0}
    second:
      serializedVersion: 2
      m_TileIndex: 33
      m_TileSpriteIndex: 33
      m_TileMatrixIndex: 0
      m_TileColorIndex: 0
      m_TileObjectToInstantiateIndex: 65535
      dummyAlignment: 0
      m_AllTileFlags: 1073741825
  - first: {x: 2, y: -1, z: 0}
    second:
      serializedVersion: 2
      m_TileIndex: 34
      m_TileSpriteIndex: 34
      m_TileMatrixIndex: 0
      m_TileColorIndex: 0
      m_TileObjectToInstantiateIndex: 65535
      dummyAlignment: 0
      m_AllTileFlags: 1073741825
  - first: {x: 3, y: -1, z: 0}
    second:
      serializedVersion: 2
      m_TileIndex: 35
      m_TileSpriteIndex: 35
      m_TileMatrixIndex: 0
      m_TileColorIndex: 0
      m_TileObjectToInstantiateIndex: 65535
      dummyAlignment: 0
      m_AllTileFlags: 1073741825
  - first: {x: 4, y: -1, z: 0}
    second:
      serializedVersion: 2
      m_TileIndex: 36
      m_TileSpriteIndex: 36
      m_TileMatrixIndex: 0
      m_TileColorIndex: 0
      m_TileObjectToInstantiateIndex: 65535
      dummyAlignment: 0
      m_AllTileFlags: 1073741825
  - first: {x: 5, y: -1, z: 0}
    second:
      serializedVersion: 2
      m_TileIndex: 37
      m_TileSpriteIndex: 37
      m_TileMatrixIndex: 0
      m_TileColorIndex: 0
      m_TileObjectToInstantiateIndex: 65535
      dummyAlignment: 0
      m_AllTileFlags: 1073741825
  - first: {x: 6, y: -1, z: 0}
    second:
      serializedVersion: 2
      m_TileIndex: 38
      m_TileSpriteIndex: 38
      m_TileMatrixIndex: 0
      m_TileColorIndex: 0
      m_TileObjectToInstantiateIndex: 65535
      dummyAlignment: 0
      m_AllTileFlags: 1073741825
  - first: {x: 7, y: -1, z: 0}
    second:
      serializedVersion: 2
      m_TileIndex: 39
      m_TileSpriteIndex: 39
      m_TileMatrixIndex: 0
      m_TileColorIndex: 0
      m_TileObjectToInstantiateIndex: 65535
      dummyAlignment: 0
      m_AllTileFlags: 1073741825
  - first: {x: -2, y: 0, z: 0}
    second:
      serializedVersion: 2
      m_TileIndex: 20
      m_TileSpriteIndex: 20
      m_TileMatrixIndex: 0
      m_TileColorIndex: 0
      m_TileObjectToInstantiateIndex: 65535
      dummyAlignment: 0
      m_AllTileFlags: 1073741825
  - first: {x: -1, y: 0, z: 0}
    second:
      serializedVersion: 2
      m_TileIndex: 21
      m_TileSpriteIndex: 21
      m_TileMatrixIndex: 0
      m_TileColorIndex: 0
      m_TileObjectToInstantiateIndex: 65535
      dummyAlignment: 0
      m_AllTileFlags: 1073741825
  - first: {x: 0, y: 0, z: 0}
    second:
      serializedVersion: 2
      m_TileIndex: 22
      m_TileSpriteIndex: 22
      m_TileMatrixIndex: 0
      m_TileColorIndex: 0
      m_TileObjectToInstantiateIndex: 65535
      dummyAlignment: 0
      m_AllTileFlags: 1073741825
  - first: {x: 1, y: 0, z: 0}
    second:
      serializedVersion: 2
      m_TileIndex: 23
      m_TileSpriteIndex: 23
      m_TileMatrixIndex: 0
      m_TileColorIndex: 0
      m_TileObjectToInstantiateIndex: 65535
      dummyAlignment: 0
      m_AllTileFlags: 1073741825
  - first: {x: 2, y: 0, z: 0}
    second:
      serializedVersion: 2
      m_TileIndex: 24
      m_TileSpriteIndex: 24
      m_TileMatrixIndex: 0
      m_TileColorIndex: 0
      m_TileObjectToInstantiateIndex: 65535
      dummyAlignment: 0
      m_AllTileFlags: 1073741825
  - first: {x: 3, y: 0, z: 0}
    second:
      serializedVersion: 2
      m_TileIndex: 25
      m_TileSpriteIndex: 25
      m_TileMatrixIndex: 0
      m_TileColorIndex: 0
      m_TileObjectToInstantiateIndex: 65535
      dummyAlignment: 0
      m_AllTileFlags: 1073741825
  - first: {x: 4, y: 0, z: 0}
    second:
      serializedVersion: 2
      m_TileIndex: 26
      m_TileSpriteIndex: 26
      m_TileMatrixIndex: 0
      m_TileColorIndex: 0
      m_TileObjectToInstantiateIndex: 65535
      dummyAlignment: 0
      m_AllTileFlags: 1073741825
  - first: {x: 5, y: 0, z: 0}
    second:
      serializedVersion: 2
      m_TileIndex: 27
      m_TileSpriteIndex: 27
      m_TileMatrixIndex: 0
      m_TileColorIndex: 0
      m_TileObjectToInstantiateIndex: 65535
      dummyAlignment: 0
      m_AllTileFlags: 1073741825
  - first: {x: 6, y: 0, z: 0}
    second:
      serializedVersion: 2
      m_TileIndex: 28
      m_TileSpriteIndex: 28
      m_TileMatrixIndex: 0
      m_TileColorIndex: 0
      m_TileObjectToInstantiateIndex: 65535
      dummyAlignment: 0
      m_AllTileFlags: 1073741825
  - first: {x: 7, y: 0, z: 0}
    second:
      serializedVersion: 2
      m_TileIndex: 29
      m_TileSpriteIndex: 29
      m_TileMatrixIndex: 0
      m_TileColorIndex: 0
      m_TileObjectToInstantiateIndex: 65535
      dummyAlignment: 0
      m_AllTileFlags: 1073741825
  - first: {x: -2, y: 1, z: 0}
    second:
      serializedVersion: 2
      m_TileIndex: 10
      m_TileSpriteIndex: 10
      m_TileMatrixIndex: 0
      m_TileColorIndex: 0
      m_TileObjectToInstantiateIndex: 65535
      dummyAlignment: 0
      m_AllTileFlags: 1073741825
  - first: {x: -1, y: 1, z: 0}
    second:
      serializedVersion: 2
      m_TileIndex: 11
      m_TileSpriteIndex: 11
      m_TileMatrixIndex: 0
      m_TileColorIndex: 0
      m_TileObjectToInstantiateIndex: 65535
      dummyAlignment: 0
      m_AllTileFlags: 1073741825
  - first: {x: 0, y: 1, z: 0}
    second:
      serializedVersion: 2
      m_TileIndex: 12
      m_TileSpriteIndex: 12
      m_TileMatrixIndex: 0
      m_TileColorIndex: 0
      m_TileObjectToInstantiateIndex: 65535
      dummyAlignment: 0
      m_AllTileFlags: 1073741825
  - first: {x: 1, y: 1, z: 0}
    second:
      serializedVersion: 2
      m_TileIndex: 13
      m_TileSpriteIndex: 13
      m_TileMatrixIndex: 0
      m_TileColorIndex: 0
      m_TileObjectToInstantiateIndex: 65535
      dummyAlignment: 0
      m_AllTileFlags: 1073741825
  - first: {x: 2, y: 1, z: 0}
    second:
      serializedVersion: 2
      m_TileIndex: 14
      m_TileSpriteIndex: 14
      m_TileMatrixIndex: 0
      m_TileColorIndex: 0
      m_TileObjectToInstantiateIndex: 65535
      dummyAlignment: 0
      m_AllTileFlags: 1073741825
  - first: {x: 3, y: 1, z: 0}
    second:
      serializedVersion: 2
      m_TileIndex: 15
      m_TileSpriteIndex: 15
      m_TileMatrixIndex: 0
      m_TileColorIndex: 0
      m_TileObjectToInstantiateIndex: 65535
      dummyAlignment: 0
      m_AllTileFlags: 1073741825
  - first: {x: 4, y: 1, z: 0}
    second:
      serializedVersion: 2
      m_TileIndex: 16
      m_TileSpriteIndex: 16
      m_TileMatrixIndex: 0
      m_TileColorIndex: 0
      m_TileObjectToInstantiateIndex: 65535
      dummyAlignment: 0
      m_AllTileFlags: 1073741825
  - first: {x: 5, y: 1, z: 0}
    second:
      serializedVersion: 2
      m_TileIndex: 17
      m_TileSpriteIndex: 17
      m_TileMatrixIndex: 0
      m_TileColorIndex: 0
      m_TileObjectToInstantiateIndex: 65535
      dummyAlignment: 0
      m_AllTileFlags: 1073741825
  - first: {x: 6, y: 1, z: 0}
    second:
      serializedVersion: 2
      m_TileIndex: 18
      m_TileSpriteIndex: 18
      m_TileMatrixIndex: 0
      m_TileColorIndex: 0
      m_TileObjectToInstantiateIndex: 65535
      dummyAlignment: 0
      m_AllTileFlags: 1073741825
  - first: {x: 7, y: 1, z: 0}
    second:
      serializedVersion: 2
      m_TileIndex: 19
      m_TileSpriteIndex: 19
      m_TileMatrixIndex: 0
      m_TileColorIndex: 0
      m_TileObjectToInstantiateIndex: 65535
      dummyAlignment: 0
      m_AllTileFlags: 1073741825
  - first: {x: -2, y: 2, z: 0}
    second:
      serializedVersion: 2
      m_TileIndex: 0
      m_TileSpriteIndex: 0
      m_TileMatrixIndex: 0
      m_TileColorIndex: 0
      m_TileObjectToInstantiateIndex: 65535
      dummyAlignment: 0
      m_AllTileFlags: 1073741825
  - first: {x: -1, y: 2, z: 0}
    second:
      serializedVersion: 2
      m_TileIndex: 1
      m_TileSpriteIndex: 1
      m_TileMatrixIndex: 0
      m_TileColorIndex: 0
      m_TileObjectToInstantiateIndex: 65535
      dummyAlignment: 0
      m_AllTileFlags: 1073741825
  - first: {x: 0, y: 2, z: 0}
    second:
      serializedVersion: 2
      m_TileIndex: 2
      m_TileSpriteIndex: 2
      m_TileMatrixIndex: 0
      m_TileColorIndex: 0
      m_TileObjectToInstantiateIndex: 65535
      dummyAlignment: 0
      m_AllTileFlags: 1073741825
  - first: {x: 1, y: 2, z: 0}
    second:
      serializedVersion: 2
      m_TileIndex: 3
      m_TileSpriteIndex: 3
      m_TileMatrixIndex: 0
      m_TileColorIndex: 0
      m_TileObjectToInstantiateIndex: 65535
      dummyAlignment: 0
      m_AllTileFlags: 1073741825
  - first: {x: 2, y: 2, z: 0}
    second:
      serializedVersion: 2
      m_TileIndex: 4
      m_TileSpriteIndex: 4
      m_TileMatrixIndex: 0
      m_TileColorIndex: 0
      m_TileObjectToInstantiateIndex: 65535
      dummyAlignment: 0
      m_AllTileFlags: 1073741825
  - first: {x: 3, y: 2, z: 0}
    second:
      serializedVersion: 2
      m_TileIndex: 5
      m_TileSpriteIndex: 5
      m_TileMatrixIndex: 0
      m_TileColorIndex: 0
      m_TileObjectToInstantiateIndex: 65535
      dummyAlignment: 0
      m_AllTileFlags: 1073741825
  - first: {x: 4, y: 2, z: 0}
    second:
      serializedVersion: 2
      m_TileIndex: 6
      m_TileSpriteIndex: 6
      m_TileMatrixIndex: 0
      m_TileColorIndex: 0
      m_TileObjectToInstantiateIndex: 65535
      dummyAlignment: 0
      m_AllTileFlags: 1073741825
  - first: {x: 5, y: 2, z: 0}
    second:
      serializedVersion: 2
      m_TileIndex: 7
      m_TileSpriteIndex: 7
      m_TileMatrixIndex: 0
      m_TileColorIndex: 0
      m_TileObjectToInstantiateIndex: 65535
      dummyAlignment: 0
      m_AllTileFlags: 1073741825
  - first: {x: 6, y: 2, z: 0}
    second:
      serializedVersion: 2
      m_TileIndex: 8
      m_TileSpriteIndex: 8
      m_TileMatrixIndex: 0
      m_TileColorIndex: 0
      m_TileObjectToInstantiateIndex: 65535
      dummyAlignment: 0
      m_AllTileFlags: 1073741825
  - first: {x: 7, y: 2, z: 0}
    second:
      serializedVersion: 2
      m_TileIndex: 9
      m_TileSpriteIndex: 9
      m_TileMatrixIndex: 0
      m_TileColorIndex: 0
      m_TileObjectToInstantiateIndex: 65535
      dummyAlignment: 0
      m_AllTileFlags: 1073741825
  m_AnimatedTiles: {}
  m_TileAssetArray:
  - m_RefCount: 1
    m_Data: {fileID: 11400000, guid: aceea96510f8a34458a4780c64836750, type: 2}
  - m_RefCount: 1
    m_Data: {fileID: 11400000, guid: b00bc91e08a20e04fb08ffbdcaef05a8, type: 2}
  - m_RefCount: 1
    m_Data: {fileID: 11400000, guid: 4c83d883498243646a313e46ddae96c2, type: 2}
  - m_RefCount: 1
    m_Data: {fileID: 11400000, guid: d547781688d6de14daed8b5be058a5db, type: 2}
  - m_RefCount: 1
    m_Data: {fileID: 11400000, guid: 38cede13fb73e7d46980198c886b04fa, type: 2}
  - m_RefCount: 1
    m_Data: {fileID: 11400000, guid: 476153dd1bb726f47821cd7f0cbedccf, type: 2}
  - m_RefCount: 1
    m_Data: {fileID: 11400000, guid: d61d1e5eb68135f43b1f5118fc73530a, type: 2}
  - m_RefCount: 1
    m_Data: {fileID: 11400000, guid: eb6dc55773e1b094fb379636baf15975, type: 2}
  - m_RefCount: 1
    m_Data: {fileID: 11400000, guid: f9c3bb091e3f2b448ae08b2203f20361, type: 2}
  - m_RefCount: 1
    m_Data: {fileID: 11400000, guid: 03f8cee23868ef6418c612979045deec, type: 2}
  - m_RefCount: 1
    m_Data: {fileID: 11400000, guid: 5cd877c4fea680042a687bc28a7836b5, type: 2}
  - m_RefCount: 1
    m_Data: {fileID: 11400000, guid: 9f4615b94ddee094ca83ae8ea3b2e210, type: 2}
  - m_RefCount: 1
    m_Data: {fileID: 11400000, guid: eaa1122529218db4c82abec894af82a3, type: 2}
  - m_RefCount: 1
    m_Data: {fileID: 11400000, guid: 4c8b2a4cc52379941a3b93f1054187d1, type: 2}
  - m_RefCount: 1
    m_Data: {fileID: 11400000, guid: 9f30c6d112c386d4c8a0c47146631f1c, type: 2}
  - m_RefCount: 1
    m_Data: {fileID: 11400000, guid: 96c802e43d04f4f4e9b23acd32f0a88a, type: 2}
  - m_RefCount: 1
    m_Data: {fileID: 11400000, guid: 3a00bab7b7d583645b55d7850a407aa4, type: 2}
  - m_RefCount: 1
    m_Data: {fileID: 11400000, guid: bb769aa194ac46a4796be2f0425892d3, type: 2}
  - m_RefCount: 1
    m_Data: {fileID: 11400000, guid: d9c261e4b79ac7b4ea8c2c27a4e2f85a, type: 2}
  - m_RefCount: 1
    m_Data: {fileID: 11400000, guid: 0dbc2e5e1269acf42966edaf6fa15016, type: 2}
  - m_RefCount: 1
    m_Data: {fileID: 11400000, guid: 0acab35333a4b1044a85548559d79525, type: 2}
  - m_RefCount: 1
    m_Data: {fileID: 11400000, guid: 7c4c8806bfabfa44eb9830f0093f79e6, type: 2}
  - m_RefCount: 1
    m_Data: {fileID: 11400000, guid: 2ec41e1fa3e82254ebd9ee956be778ad, type: 2}
  - m_RefCount: 1
    m_Data: {fileID: 11400000, guid: 06b3ea46f84d1e744a2581495ede3117, type: 2}
  - m_RefCount: 1
    m_Data: {fileID: 11400000, guid: f3ca9b336e10746468197055ec6486fb, type: 2}
  - m_RefCount: 1
    m_Data: {fileID: 11400000, guid: a8297da352b639745b29a3713038b231, type: 2}
  - m_RefCount: 1
    m_Data: {fileID: 11400000, guid: cd508928077a9194bb1d1b873a88b942, type: 2}
  - m_RefCount: 1
    m_Data: {fileID: 11400000, guid: 3e737543e2e17dc4fbf301641169f707, type: 2}
  - m_RefCount: 1
    m_Data: {fileID: 11400000, guid: 395e9e8e7bd2dac43b3a33add161efe4, type: 2}
  - m_RefCount: 1
    m_Data: {fileID: 11400000, guid: 447e89441e4ea5e4f86707a516b9a002, type: 2}
  - m_RefCount: 1
    m_Data: {fileID: 11400000, guid: e7d256a525c7cf44f8283d7d1c04477c, type: 2}
  - m_RefCount: 1
    m_Data: {fileID: 11400000, guid: 1cdfdffdef028d44392d8916f49e3ee1, type: 2}
  - m_RefCount: 1
    m_Data: {fileID: 11400000, guid: b1a2f9c69b9a44749866a836af52104f, type: 2}
  - m_RefCount: 1
    m_Data: {fileID: 11400000, guid: c147c2b6c3f91bf43bb1fe74fe9b84d6, type: 2}
  - m_RefCount: 1
    m_Data: {fileID: 11400000, guid: 0ab16938dc9f7f34890e8fcbb20bbfc7, type: 2}
  - m_RefCount: 1
    m_Data: {fileID: 11400000, guid: 3c44a3ad901533c48861ea0988a2a28f, type: 2}
  - m_RefCount: 1
    m_Data: {fileID: 11400000, guid: 8f499aec68cb717408679aa7f65b247e, type: 2}
  - m_RefCount: 1
    m_Data: {fileID: 11400000, guid: 82dd408989fee01408e861f08876d104, type: 2}
  - m_RefCount: 1
    m_Data: {fileID: 11400000, guid: 04ba4d904d3e3a04190d3a4a973f3f5f, type: 2}
  - m_RefCount: 1
    m_Data: {fileID: 11400000, guid: 155704bd9c5e476418afc6744d58d35b, type: 2}
  - m_RefCount: 1
    m_Data: {fileID: 11400000, guid: 7561bfd773c5bb24090a3026c07cc897, type: 2}
  - m_RefCount: 1
    m_Data: {fileID: 11400000, guid: d1d21a099cd01d34f93d1a8cd2bd80ef, type: 2}
  - m_RefCount: 1
    m_Data: {fileID: 11400000, guid: 0a691931d9c32bc4b8cf0cedf0af6e3e, type: 2}
  - m_RefCount: 1
    m_Data: {fileID: 11400000, guid: 014cb6b09c3edd54cb099a45194d7044, type: 2}
  - m_RefCount: 1
    m_Data: {fileID: 11400000, guid: 422fb6c9ae11efa4cadce6cf9d275687, type: 2}
  - m_RefCount: 1
    m_Data: {fileID: 11400000, guid: 6ddc48a74173afd4cabbda61290eb9bc, type: 2}
  - m_RefCount: 1
    m_Data: {fileID: 11400000, guid: a887238f62a2b874abb474618b8ff34a, type: 2}
  - m_RefCount: 1
    m_Data: {fileID: 11400000, guid: b48044f366bd1044bbe070e6351d5a95, type: 2}
  - m_RefCount: 1
    m_Data: {fileID: 11400000, guid: b1a10d2ac79a6bc4081227643d22aa13, type: 2}
  - m_RefCount: 1
    m_Data: {fileID: 11400000, guid: 3b01dae23645f054a95779c97fab71bd, type: 2}
  - m_RefCount: 1
    m_Data: {fileID: 11400000, guid: 488b7322b68f6db42855b15e05f1e3ce, type: 2}
  - m_RefCount: 1
    m_Data: {fileID: 11400000, guid: 93f8461f967ba3b478a7dd92218104c3, type: 2}
  - m_RefCount: 1
    m_Data: {fileID: 11400000, guid: d60c52ab3f6438e4882ef9a0e567973d, type: 2}
  - m_RefCount: 1
    m_Data: {fileID: 11400000, guid: 40ac789f070151d419c51919a3a45705, type: 2}
  - m_RefCount: 1
    m_Data: {fileID: 11400000, guid: 16cfa0656650a9641bbafb6fdfd5ca4d, type: 2}
  - m_RefCount: 1
    m_Data: {fileID: 11400000, guid: fefc00ec646bd4b4386c68d193599b31, type: 2}
  - m_RefCount: 1
    m_Data: {fileID: 11400000, guid: c10029e4fb720f344a9496cfdb01e43b, type: 2}
  - m_RefCount: 1
    m_Data: {fileID: 11400000, guid: 45c561038513c384e8c79326b0a279f4, type: 2}
  - m_RefCount: 1
    m_Data: {fileID: 11400000, guid: 2fac19cd793a9264dbb0cc43418ba77a, type: 2}
  - m_RefCount: 1
    m_Data: {fileID: 11400000, guid: 6197f640a7b7ab9448b9815116398113, type: 2}
  - m_RefCount: 1
    m_Data: {fileID: 11400000, guid: 9f502e9bca4903347bee29ee796e1dfd, type: 2}
  - m_RefCount: 1
    m_Data: {fileID: 11400000, guid: d433a18b39631164ea683a93b185bc49, type: 2}
  - m_RefCount: 1
    m_Data: {fileID: 11400000, guid: e276809b112664646b0ad20b3d2d4455, type: 2}
  - m_RefCount: 1
    m_Data: {fileID: 11400000, guid: 4f5daf592734edf4590acbac280a5b2f, type: 2}
  - m_RefCount: 1
    m_Data: {fileID: 11400000, guid: f5da2fecf84361a4b87bfd70fb0b3fbf, type: 2}
  - m_RefCount: 1
    m_Data: {fileID: 11400000, guid: cee6e146a861d2845b0781045439b544, type: 2}
  - m_RefCount: 1
    m_Data: {fileID: 11400000, guid: 5e28c8cf2590fbb47bb3ecc833ed2802, type: 2}
  - m_RefCount: 1
    m_Data: {fileID: 11400000, guid: d8485d3c1a5909f429b6bf8f5acfad02, type: 2}
  - m_RefCount: 1
    m_Data: {fileID: 11400000, guid: 8a5464383c912d64ea82a8ba5bc7fc0b, type: 2}
  - m_RefCount: 1
    m_Data: {fileID: 11400000, guid: 9851b34069b5c22479e89747b0ea18a2, type: 2}
  - m_RefCount: 1
    m_Data: {fileID: 11400000, guid: c861ebb853a4a114a844ef555a935517, type: 2}
  - m_RefCount: 1
    m_Data: {fileID: 11400000, guid: f0e8d25da2964574391ecb9091251bf2, type: 2}
  - m_RefCount: 1
    m_Data: {fileID: 11400000, guid: 103585b075b118746865d3e0dd4411f4, type: 2}
  - m_RefCount: 1
    m_Data: {fileID: 11400000, guid: 9b66841bf0da9fc469c432fef6dd28a1, type: 2}
  - m_RefCount: 1
    m_Data: {fileID: 11400000, guid: a269918585718074493a238f01cd50f7, type: 2}
  - m_RefCount: 1
    m_Data: {fileID: 11400000, guid: e03beffcea4341c4f935116e90cd059f, type: 2}
  - m_RefCount: 1
    m_Data: {fileID: 11400000, guid: 46adcb8579daa9c49a1aaedcc00e75ab, type: 2}
  - m_RefCount: 1
    m_Data: {fileID: 11400000, guid: 8da8e86dd03adea409cda7122fe6753b, type: 2}
  - m_RefCount: 1
    m_Data: {fileID: 11400000, guid: e0645290024be1745b0465c17a2e9d5f, type: 2}
  - m_RefCount: 1
    m_Data: {fileID: 11400000, guid: 43a92ca9c2eabc140be54e4a2703a24e, type: 2}
  - m_RefCount: 1
    m_Data: {fileID: 11400000, guid: 5963546c1f28cd14eac17883796a519a, type: 2}
  - m_RefCount: 1
    m_Data: {fileID: 11400000, guid: 8ecb571d85a1d7c4ea6b955033a98470, type: 2}
  - m_RefCount: 1
    m_Data: {fileID: 11400000, guid: 5d3114aa522637144b961eb70fca60f1, type: 2}
  - m_RefCount: 1
    m_Data: {fileID: 11400000, guid: f3167be88afa81e43b24985ce5c4708d, type: 2}
  - m_RefCount: 1
    m_Data: {fileID: 11400000, guid: 2d7bae5acba60b8418ec14aeff44e609, type: 2}
  - m_RefCount: 1
    m_Data: {fileID: 11400000, guid: 82bce6121ab9c0f4b8a1bb71dee7c6e1, type: 2}
  - m_RefCount: 1
    m_Data: {fileID: 11400000, guid: e5be08312f5295643988972894df6b47, type: 2}
  - m_RefCount: 1
    m_Data: {fileID: 11400000, guid: 1cac08fbdbc816a4db444f0c2cc1c093, type: 2}
  - m_RefCount: 1
    m_Data: {fileID: 11400000, guid: 0ba1ef4af4ae15d469824ad340b7d421, type: 2}
  - m_RefCount: 1
    m_Data: {fileID: 11400000, guid: 73860e5f60a28134db1c3c9d5d9ca567, type: 2}
  - m_RefCount: 1
    m_Data: {fileID: 11400000, guid: f052554f01512f24bbe0e95a1d0689eb, type: 2}
  - m_RefCount: 1
    m_Data: {fileID: 11400000, guid: 014d87fa2b47a8a489ca449bea54d5ec, type: 2}
  - m_RefCount: 1
    m_Data: {fileID: 11400000, guid: e6ec3e2eb9cd8894da5d6c3dc312ab60, type: 2}
  - m_RefCount: 1
    m_Data: {fileID: 11400000, guid: accffad75d714f243b194422c1548cf4, type: 2}
  - m_RefCount: 1
    m_Data: {fileID: 11400000, guid: ddd739d2ff6d41945970fd695e6091c5, type: 2}
  - m_RefCount: 1
    m_Data: {fileID: 11400000, guid: ea2cab93c411798419840f3c4d055c83, type: 2}
  - m_RefCount: 1
    m_Data: {fileID: 11400000, guid: 3a2144eeca270b54cb98316aeef69824, type: 2}
  - m_RefCount: 1
    m_Data: {fileID: 11400000, guid: 55f67867a5637714f98ea537fb721ce0, type: 2}
  - m_RefCount: 1
    m_Data: {fileID: 11400000, guid: 8c0fe408d20c1b84ab2791c0105fd11d, type: 2}
  - m_RefCount: 1
    m_Data: {fileID: 11400000, guid: 6edc64a28d7187c4da6c47f5e53f8daa, type: 2}
  - m_RefCount: 1
    m_Data: {fileID: 11400000, guid: 8c1941b42008540498125aa27562773d, type: 2}
  - m_RefCount: 1
    m_Data: {fileID: 11400000, guid: 2b532d6eeeffae74ca82c137dd28e93d, type: 2}
  - m_RefCount: 1
    m_Data: {fileID: 11400000, guid: 72d39436b42e35f4ba8e31db18dd0c2d, type: 2}
  - m_RefCount: 1
    m_Data: {fileID: 11400000, guid: 9c2b6da4734963d42bef6d6cd4727ee5, type: 2}
  - m_RefCount: 1
    m_Data: {fileID: 11400000, guid: 61bf8a80b20e4fc4aa8fbd01496872ba, type: 2}
  - m_RefCount: 1
    m_Data: {fileID: 11400000, guid: 02522e143fc64164e930b5e576ae35e7, type: 2}
  - m_RefCount: 1
    m_Data: {fileID: 11400000, guid: 56e44efa76610444a959c553ff67e511, type: 2}
  - m_RefCount: 1
    m_Data: {fileID: 11400000, guid: a2f772f701125e145bfc02791bf2f427, type: 2}
  m_TileSpriteArray:
  - m_RefCount: 1
    m_Data: {fileID: -286914344, guid: 029030ab7555c8c4e95178103a2328f6, type: 3}
  - m_RefCount: 1
    m_Data: {fileID: -2021025150, guid: 029030ab7555c8c4e95178103a2328f6, type: 3}
  - m_RefCount: 1
    m_Data: {fileID: 1504800464, guid: 029030ab7555c8c4e95178103a2328f6, type: 3}
  - m_RefCount: 1
    m_Data: {fileID: 230107737, guid: 029030ab7555c8c4e95178103a2328f6, type: 3}
  - m_RefCount: 1
    m_Data: {fileID: 770886932, guid: 029030ab7555c8c4e95178103a2328f6, type: 3}
  - m_RefCount: 1
    m_Data: {fileID: 1511317193, guid: 029030ab7555c8c4e95178103a2328f6, type: 3}
  - m_RefCount: 1
    m_Data: {fileID: 1583896513, guid: 029030ab7555c8c4e95178103a2328f6, type: 3}
  - m_RefCount: 1
    m_Data: {fileID: -107961167, guid: 029030ab7555c8c4e95178103a2328f6, type: 3}
  - m_RefCount: 1
    m_Data: {fileID: 1977063816, guid: 029030ab7555c8c4e95178103a2328f6, type: 3}
  - m_RefCount: 1
    m_Data: {fileID: 113964812, guid: 029030ab7555c8c4e95178103a2328f6, type: 3}
  - m_RefCount: 1
    m_Data: {fileID: -2039779689, guid: 029030ab7555c8c4e95178103a2328f6, type: 3}
  - m_RefCount: 1
    m_Data: {fileID: 841509257, guid: 029030ab7555c8c4e95178103a2328f6, type: 3}
  - m_RefCount: 1
    m_Data: {fileID: 828712206, guid: 029030ab7555c8c4e95178103a2328f6, type: 3}
  - m_RefCount: 1
    m_Data: {fileID: 1359808036, guid: 029030ab7555c8c4e95178103a2328f6, type: 3}
  - m_RefCount: 1
    m_Data: {fileID: -1560392103, guid: 029030ab7555c8c4e95178103a2328f6, type: 3}
  - m_RefCount: 1
    m_Data: {fileID: 1885213407, guid: 029030ab7555c8c4e95178103a2328f6, type: 3}
  - m_RefCount: 1
    m_Data: {fileID: -477432995, guid: 029030ab7555c8c4e95178103a2328f6, type: 3}
  - m_RefCount: 1
    m_Data: {fileID: -211468984, guid: 029030ab7555c8c4e95178103a2328f6, type: 3}
  - m_RefCount: 1
    m_Data: {fileID: -1525270221, guid: 029030ab7555c8c4e95178103a2328f6, type: 3}
  - m_RefCount: 1
    m_Data: {fileID: 789096488, guid: 029030ab7555c8c4e95178103a2328f6, type: 3}
  - m_RefCount: 1
    m_Data: {fileID: 788844937, guid: 029030ab7555c8c4e95178103a2328f6, type: 3}
  - m_RefCount: 1
    m_Data: {fileID: 875849360, guid: 029030ab7555c8c4e95178103a2328f6, type: 3}
  - m_RefCount: 1
    m_Data: {fileID: -1963327043, guid: 029030ab7555c8c4e95178103a2328f6, type: 3}
  - m_RefCount: 1
    m_Data: {fileID: -867703883, guid: 029030ab7555c8c4e95178103a2328f6, type: 3}
  - m_RefCount: 1
    m_Data: {fileID: 1088759973, guid: 029030ab7555c8c4e95178103a2328f6, type: 3}
  - m_RefCount: 1
    m_Data: {fileID: -1596636479, guid: 029030ab7555c8c4e95178103a2328f6, type: 3}
  - m_RefCount: 1
    m_Data: {fileID: -2051135431, guid: 029030ab7555c8c4e95178103a2328f6, type: 3}
  - m_RefCount: 1
    m_Data: {fileID: 1317430703, guid: 029030ab7555c8c4e95178103a2328f6, type: 3}
  - m_RefCount: 1
    m_Data: {fileID: -1995340845, guid: 029030ab7555c8c4e95178103a2328f6, type: 3}
  - m_RefCount: 1
    m_Data: {fileID: -1555667609, guid: 029030ab7555c8c4e95178103a2328f6, type: 3}
  - m_RefCount: 1
    m_Data: {fileID: -1810570526, guid: 029030ab7555c8c4e95178103a2328f6, type: 3}
  - m_RefCount: 1
    m_Data: {fileID: -556406888, guid: 029030ab7555c8c4e95178103a2328f6, type: 3}
  - m_RefCount: 1
    m_Data: {fileID: -1793868536, guid: 029030ab7555c8c4e95178103a2328f6, type: 3}
  - m_RefCount: 1
    m_Data: {fileID: 332560485, guid: 029030ab7555c8c4e95178103a2328f6, type: 3}
  - m_RefCount: 1
    m_Data: {fileID: -1673686351, guid: 029030ab7555c8c4e95178103a2328f6, type: 3}
  - m_RefCount: 1
    m_Data: {fileID: 999316145, guid: 029030ab7555c8c4e95178103a2328f6, type: 3}
  - m_RefCount: 1
    m_Data: {fileID: 234313037, guid: 029030ab7555c8c4e95178103a2328f6, type: 3}
  - m_RefCount: 1
    m_Data: {fileID: 1873758497, guid: 029030ab7555c8c4e95178103a2328f6, type: 3}
  - m_RefCount: 1
    m_Data: {fileID: -427007799, guid: 029030ab7555c8c4e95178103a2328f6, type: 3}
  - m_RefCount: 1
    m_Data: {fileID: 1497042790, guid: 029030ab7555c8c4e95178103a2328f6, type: 3}
  - m_RefCount: 1
    m_Data: {fileID: 1289332786, guid: 029030ab7555c8c4e95178103a2328f6, type: 3}
  - m_RefCount: 1
    m_Data: {fileID: -1289275060, guid: 029030ab7555c8c4e95178103a2328f6, type: 3}
  - m_RefCount: 1
    m_Data: {fileID: 1603981618, guid: 029030ab7555c8c4e95178103a2328f6, type: 3}
  - m_RefCount: 1
    m_Data: {fileID: -755409602, guid: 029030ab7555c8c4e95178103a2328f6, type: 3}
  - m_RefCount: 1
    m_Data: {fileID: -1462977069, guid: 029030ab7555c8c4e95178103a2328f6, type: 3}
  - m_RefCount: 1
    m_Data: {fileID: -525395194, guid: 029030ab7555c8c4e95178103a2328f6, type: 3}
  - m_RefCount: 1
    m_Data: {fileID: -2016744040, guid: 029030ab7555c8c4e95178103a2328f6, type: 3}
  - m_RefCount: 1
    m_Data: {fileID: 944227667, guid: 029030ab7555c8c4e95178103a2328f6, type: 3}
  - m_RefCount: 1
    m_Data: {fileID: 1830226697, guid: 029030ab7555c8c4e95178103a2328f6, type: 3}
  - m_RefCount: 1
    m_Data: {fileID: -2141350725, guid: 029030ab7555c8c4e95178103a2328f6, type: 3}
  - m_RefCount: 1
    m_Data: {fileID: 869592907, guid: 029030ab7555c8c4e95178103a2328f6, type: 3}
  - m_RefCount: 1
    m_Data: {fileID: -607141647, guid: 029030ab7555c8c4e95178103a2328f6, type: 3}
  - m_RefCount: 1
    m_Data: {fileID: -938140705, guid: 029030ab7555c8c4e95178103a2328f6, type: 3}
  - m_RefCount: 1
    m_Data: {fileID: 158389936, guid: 029030ab7555c8c4e95178103a2328f6, type: 3}
  - m_RefCount: 1
    m_Data: {fileID: -1042431991, guid: 029030ab7555c8c4e95178103a2328f6, type: 3}
  - m_RefCount: 1
    m_Data: {fileID: -1469627256, guid: 029030ab7555c8c4e95178103a2328f6, type: 3}
  - m_RefCount: 1
    m_Data: {fileID: 601288283, guid: 029030ab7555c8c4e95178103a2328f6, type: 3}
  - m_RefCount: 1
    m_Data: {fileID: -914432358, guid: 029030ab7555c8c4e95178103a2328f6, type: 3}
  - m_RefCount: 1
    m_Data: {fileID: -1718872942, guid: 029030ab7555c8c4e95178103a2328f6, type: 3}
  - m_RefCount: 1
    m_Data: {fileID: 1565032428, guid: 029030ab7555c8c4e95178103a2328f6, type: 3}
  - m_RefCount: 1
    m_Data: {fileID: -2075980409, guid: 029030ab7555c8c4e95178103a2328f6, type: 3}
  - m_RefCount: 1
    m_Data: {fileID: 1493812849, guid: 029030ab7555c8c4e95178103a2328f6, type: 3}
  - m_RefCount: 1
    m_Data: {fileID: 210645715, guid: 029030ab7555c8c4e95178103a2328f6, type: 3}
  - m_RefCount: 1
    m_Data: {fileID: 1272950073, guid: 029030ab7555c8c4e95178103a2328f6, type: 3}
  - m_RefCount: 1
    m_Data: {fileID: 490849718, guid: 029030ab7555c8c4e95178103a2328f6, type: 3}
  - m_RefCount: 1
    m_Data: {fileID: 748006150, guid: 029030ab7555c8c4e95178103a2328f6, type: 3}
  - m_RefCount: 1
    m_Data: {fileID: 762353593, guid: 029030ab7555c8c4e95178103a2328f6, type: 3}
  - m_RefCount: 1
    m_Data: {fileID: -1817385417, guid: 029030ab7555c8c4e95178103a2328f6, type: 3}
  - m_RefCount: 1
    m_Data: {fileID: 1258967366, guid: 029030ab7555c8c4e95178103a2328f6, type: 3}
  - m_RefCount: 1
    m_Data: {fileID: -1182572826, guid: 029030ab7555c8c4e95178103a2328f6, type: 3}
  - m_RefCount: 1
    m_Data: {fileID: 1922014088, guid: 029030ab7555c8c4e95178103a2328f6, type: 3}
  - m_RefCount: 1
    m_Data: {fileID: 2054827655, guid: 029030ab7555c8c4e95178103a2328f6, type: 3}
  - m_RefCount: 1
    m_Data: {fileID: -1457374448, guid: 029030ab7555c8c4e95178103a2328f6, type: 3}
  - m_RefCount: 1
    m_Data: {fileID: 38421848, guid: 029030ab7555c8c4e95178103a2328f6, type: 3}
  - m_RefCount: 1
    m_Data: {fileID: 507265899, guid: 029030ab7555c8c4e95178103a2328f6, type: 3}
  - m_RefCount: 1
    m_Data: {fileID: 95547913, guid: 029030ab7555c8c4e95178103a2328f6, type: 3}
  - m_RefCount: 1
    m_Data: {fileID: -1677789493, guid: 029030ab7555c8c4e95178103a2328f6, type: 3}
  - m_RefCount: 1
    m_Data: {fileID: 1346118836, guid: 029030ab7555c8c4e95178103a2328f6, type: 3}
  - m_RefCount: 1
    m_Data: {fileID: 354887218, guid: 029030ab7555c8c4e95178103a2328f6, type: 3}
  - m_RefCount: 1
    m_Data: {fileID: 740892463, guid: 029030ab7555c8c4e95178103a2328f6, type: 3}
  - m_RefCount: 1
    m_Data: {fileID: -1718376012, guid: 029030ab7555c8c4e95178103a2328f6, type: 3}
  - m_RefCount: 1
    m_Data: {fileID: 2029337864, guid: 029030ab7555c8c4e95178103a2328f6, type: 3}
  - m_RefCount: 1
    m_Data: {fileID: -1820158010, guid: 029030ab7555c8c4e95178103a2328f6, type: 3}
  - m_RefCount: 1
    m_Data: {fileID: 783496329, guid: 029030ab7555c8c4e95178103a2328f6, type: 3}
  - m_RefCount: 1
    m_Data: {fileID: -781612745, guid: 029030ab7555c8c4e95178103a2328f6, type: 3}
  - m_RefCount: 1
    m_Data: {fileID: 1281469734, guid: 029030ab7555c8c4e95178103a2328f6, type: 3}
  - m_RefCount: 1
    m_Data: {fileID: 1200037211, guid: 029030ab7555c8c4e95178103a2328f6, type: 3}
  - m_RefCount: 1
    m_Data: {fileID: 1977292848, guid: 029030ab7555c8c4e95178103a2328f6, type: 3}
  - m_RefCount: 1
    m_Data: {fileID: -21293495, guid: 029030ab7555c8c4e95178103a2328f6, type: 3}
  - m_RefCount: 1
    m_Data: {fileID: 1684200513, guid: 029030ab7555c8c4e95178103a2328f6, type: 3}
  - m_RefCount: 1
    m_Data: {fileID: 980431480, guid: 029030ab7555c8c4e95178103a2328f6, type: 3}
  - m_RefCount: 1
    m_Data: {fileID: 1745306790, guid: 029030ab7555c8c4e95178103a2328f6, type: 3}
  - m_RefCount: 1
    m_Data: {fileID: 1219361700, guid: 029030ab7555c8c4e95178103a2328f6, type: 3}
  - m_RefCount: 1
    m_Data: {fileID: 784189924, guid: 029030ab7555c8c4e95178103a2328f6, type: 3}
  - m_RefCount: 1
    m_Data: {fileID: -1987697217, guid: 029030ab7555c8c4e95178103a2328f6, type: 3}
  - m_RefCount: 1
    m_Data: {fileID: -1614092179, guid: 029030ab7555c8c4e95178103a2328f6, type: 3}
  - m_RefCount: 1
    m_Data: {fileID: -675047528, guid: 029030ab7555c8c4e95178103a2328f6, type: 3}
  - m_RefCount: 1
    m_Data: {fileID: 1426304584, guid: 029030ab7555c8c4e95178103a2328f6, type: 3}
  - m_RefCount: 1
    m_Data: {fileID: 754199403, guid: 029030ab7555c8c4e95178103a2328f6, type: 3}
  - m_RefCount: 1
    m_Data: {fileID: 1494864372, guid: 029030ab7555c8c4e95178103a2328f6, type: 3}
  - m_RefCount: 1
    m_Data: {fileID: 316236596, guid: 029030ab7555c8c4e95178103a2328f6, type: 3}
  - m_RefCount: 1
    m_Data: {fileID: 1402961182, guid: 029030ab7555c8c4e95178103a2328f6, type: 3}
  - m_RefCount: 1
    m_Data: {fileID: -1792722606, guid: 029030ab7555c8c4e95178103a2328f6, type: 3}
  - m_RefCount: 1
    m_Data: {fileID: -28944920, guid: 029030ab7555c8c4e95178103a2328f6, type: 3}
  - m_RefCount: 1
    m_Data: {fileID: -483698090, guid: 029030ab7555c8c4e95178103a2328f6, type: 3}
  - m_RefCount: 1
    m_Data: {fileID: -1883116720, guid: 029030ab7555c8c4e95178103a2328f6, type: 3}
  - m_RefCount: 1
    m_Data: {fileID: -507071215, guid: 029030ab7555c8c4e95178103a2328f6, type: 3}
  - m_RefCount: 1
    m_Data: {fileID: -2082446926, guid: 029030ab7555c8c4e95178103a2328f6, type: 3}
  m_TileMatrixArray:
  - m_RefCount: 108
    m_Data:
      e00: 1
      e01: 0
      e02: 0
      e03: 0
      e10: 0
      e11: 1
      e12: 0
      e13: 0
      e20: 0
      e21: 0
      e22: 1
      e23: 0
      e30: 0
      e31: 0
      e32: 0
      e33: 1
  m_TileColorArray:
  - m_RefCount: 108
    m_Data: {r: 1, g: 1, b: 1, a: 1}
  m_TileObjectToInstantiateArray: []
  m_AnimationFrameRate: 1
  m_Color: {r: 1, g: 1, b: 1, a: 1}
  m_Origin: {x: -2, y: -8, z: 0}
  m_Size: {x: 10, y: 11, z: 1}
  m_TileAnchor: {x: 0.5, y: 0.5, z: 0}
  m_TileOrientation: 0
  m_TileOrientationMatrix:
    e00: 1
    e01: 0
    e02: 0
    e03: 0
    e10: 0
    e11: 1
    e12: 0
    e13: 0
    e20: 0
    e21: 0
    e22: 1
    e23: 0
    e30: 0
    e31: 0
    e32: 0
    e33: 1
--- !u!483693784 &4191539095247928119
TilemapRenderer:
  m_ObjectHideFlags: 0
  m_CorrespondingSourceObject: {fileID: 0}
  m_PrefabInstance: {fileID: 0}
  m_PrefabAsset: {fileID: 0}
  m_GameObject: {fileID: 1507494914998382875}
  m_Enabled: 1
  m_CastShadows: 0
  m_ReceiveShadows: 0
  m_DynamicOccludee: 0
  m_StaticShadowCaster: 0
  m_MotionVectors: 1
  m_LightProbeUsage: 0
  m_ReflectionProbeUsage: 0
  m_RayTracingMode: 0
  m_RayTraceProcedural: 0
  m_RenderingLayerMask: 1
  m_RendererPriority: 0
  m_Materials:
  - {fileID: 10754, guid: 0000000000000000f000000000000000, type: 0}
  m_StaticBatchInfo:
    firstSubMesh: 0
    subMeshCount: 0
  m_StaticBatchRoot: {fileID: 0}
  m_ProbeAnchor: {fileID: 0}
  m_LightProbeVolumeOverride: {fileID: 0}
  m_ScaleInLightmap: 1
  m_ReceiveGI: 1
  m_PreserveUVs: 0
  m_IgnoreNormalsForChartDetection: 0
  m_ImportantGI: 0
  m_StitchLightmapSeams: 1
  m_SelectedEditorRenderState: 0
  m_MinimumChartSize: 4
  m_AutoUVMaxDistance: 0.5
  m_AutoUVMaxAngle: 89
  m_LightmapParameters: {fileID: 0}
  m_SortingLayerID: 0
  m_SortingLayer: 0
  m_SortingOrder: 0
  m_ChunkSize: {x: 32, y: 32, z: 32}
  m_ChunkCullingBounds: {x: 0, y: 0, z: 0}
  m_MaxChunkCount: 16
  m_MaxFrameAge: 16
  m_SortOrder: 0
  m_Mode: 0
  m_DetectChunkCullingBounds: 0
  m_MaskInteraction: 0
--- !u!1 &4136566666925576790
GameObject:
  m_ObjectHideFlags: 0
  m_CorrespondingSourceObject: {fileID: 0}
  m_PrefabInstance: {fileID: 0}
  m_PrefabAsset: {fileID: 0}
  serializedVersion: 6
  m_Component:
  - component: {fileID: 2206751280664724649}
  - component: {fileID: 8571009361750637488}
  m_Layer: 0
  m_Name: Decorations
  m_TagString: Untagged
  m_Icon: {fileID: 0}
  m_NavMeshLayer: 0
  m_StaticEditorFlags: 0
  m_IsActive: 1
--- !u!4 &2206751280664724649
Transform:
  m_ObjectHideFlags: 0
  m_CorrespondingSourceObject: {fileID: 0}
  m_PrefabInstance: {fileID: 0}
  m_PrefabAsset: {fileID: 0}
  m_GameObject: {fileID: 4136566666925576790}
  m_LocalRotation: {x: 0, y: 0, z: 0, w: 1}
  m_LocalPosition: {x: 0, y: 0, z: 0}
  m_LocalScale: {x: 1, y: 1, z: 1}
  m_ConstrainProportionsScale: 0
  m_Children:
  - {fileID: 4144846177072919320}
  m_Father: {fileID: 0}
  m_RootOrder: 0
  m_LocalEulerAnglesHint: {x: 0, y: 0, z: 0}
--- !u!156049354 &8571009361750637488
Grid:
  m_ObjectHideFlags: 0
  m_CorrespondingSourceObject: {fileID: 0}
  m_PrefabInstance: {fileID: 0}
  m_PrefabAsset: {fileID: 0}
  m_GameObject: {fileID: 4136566666925576790}
  m_Enabled: 1
  m_CellSize: {x: 1, y: 1, z: 0}
  m_CellGap: {x: 0, y: 0, z: 0}
  m_CellLayout: 0
  m_CellSwizzle: 0
--- !u!114 &599982977862020728
MonoBehaviour:
  m_ObjectHideFlags: 0
  m_CorrespondingSourceObject: {fileID: 0}
  m_PrefabInstance: {fileID: 0}
  m_PrefabAsset: {fileID: 0}
  m_GameObject: {fileID: 0}
  m_Enabled: 1
  m_EditorHideFlags: 0
  m_Script: {fileID: 12395, guid: 0000000000000000e000000000000000, type: 0}
  m_Name: Palette Settings
  m_EditorClassIdentifier: 
  cellSizing: 0
  m_TransparencySortMode: 0
  m_TransparencySortAxis: {x: 0, y: 0, z: 1}
