%YAML 1.1
%TAG !u! tag:unity3d.com,2011:
--- !u!1001 &1809620232691843522
PrefabInstance:
  m_ObjectHideFlags: 0
  serializedVersion: 2
  m_Modification:
    m_TransformParent: {fileID: 0}
    m_Modifications:
    - target: {fileID: 39461560035797648, guid: 8bc5334d8b2a72941b96f0b5c48a68ea,
        type: 3}
      propertyPath: m_Pivot.x
      value: 0.5
      objectReference: {fileID: 0}
    - target: {fileID: 39461560035797648, guid: 8bc5334d8b2a72941b96f0b5c48a68ea,
        type: 3}
      propertyPath: m_Pivot.y
      value: 0.5
      objectReference: {fileID: 0}
    - target: {fileID: 39461560035797648, guid: 8bc5334d8b2a72941b96f0b5c48a68ea,
        type: 3}
      propertyPath: m_RootOrder
      value: 0
      objectReference: {fileID: 0}
    - target: {fileID: 39461560035797648, guid: 8bc5334d8b2a72941b96f0b5c48a68ea,
        type: 3}
      propertyPath: m_AnchorMax.x
      value: 0.5
      objectReference: {fileID: 0}
    - target: {fileID: 39461560035797648, guid: 8bc5334d8b2a72941b96f0b5c48a68ea,
        type: 3}
      propertyPath: m_AnchorMax.y
      value: 0.5
      objectReference: {fileID: 0}
    - target: {fileID: 39461560035797648, guid: 8bc5334d8b2a72941b96f0b5c48a68ea,
        type: 3}
      propertyPath: m_AnchorMin.x
      value: 0.5
      objectReference: {fileID: 0}
    - target: {fileID: 39461560035797648, guid: 8bc5334d8b2a72941b96f0b5c48a68ea,
        type: 3}
      propertyPath: m_AnchorMin.y
      value: 0.5
      objectReference: {fileID: 0}
    - target: {fileID: 39461560035797648, guid: 8bc5334d8b2a72941b96f0b5c48a68ea,
        type: 3}
      propertyPath: m_SizeDelta.x
      value: 100
      objectReference: {fileID: 0}
    - target: {fileID: 39461560035797648, guid: 8bc5334d8b2a72941b96f0b5c48a68ea,
        type: 3}
      propertyPath: m_SizeDelta.y
      value: 100
      objectReference: {fileID: 0}
    - target: {fileID: 39461560035797648, guid: 8bc5334d8b2a72941b96f0b5c48a68ea,
        type: 3}
      propertyPath: m_LocalScale.x
      value: 2.4
      objectReference: {fileID: 0}
    - target: {fileID: 39461560035797648, guid: 8bc5334d8b2a72941b96f0b5c48a68ea,
        type: 3}
      propertyPath: m_LocalScale.y
      value: 2.4
      objectReference: {fileID: 0}
    - target: {fileID: 39461560035797648, guid: 8bc5334d8b2a72941b96f0b5c48a68ea,
        type: 3}
      propertyPath: m_LocalScale.z
      value: 2.4
      objectReference: {fileID: 0}
    - target: {fileID: 39461560035797648, guid: 8bc5334d8b2a72941b96f0b5c48a68ea,
        type: 3}
      propertyPath: m_LocalPosition.x
      value: 0
      objectReference: {fileID: 0}
    - target: {fileID: 39461560035797648, guid: 8bc5334d8b2a72941b96f0b5c48a68ea,
        type: 3}
      propertyPath: m_LocalPosition.y
      value: 0
      objectReference: {fileID: 0}
    - target: {fileID: 39461560035797648, guid: 8bc5334d8b2a72941b96f0b5c48a68ea,
        type: 3}
      propertyPath: m_LocalPosition.z
      value: 0
      objectReference: {fileID: 0}
    - target: {fileID: 39461560035797648, guid: 8bc5334d8b2a72941b96f0b5c48a68ea,
        type: 3}
      propertyPath: m_LocalRotation.w
      value: 1
      objectReference: {fileID: 0}
    - target: {fileID: 39461560035797648, guid: 8bc5334d8b2a72941b96f0b5c48a68ea,
        type: 3}
      propertyPath: m_LocalRotation.x
      value: -0
      objectReference: {fileID: 0}
    - target: {fileID: 39461560035797648, guid: 8bc5334d8b2a72941b96f0b5c48a68ea,
        type: 3}
      propertyPath: m_LocalRotation.y
      value: -0
      objectReference: {fileID: 0}
    - target: {fileID: 39461560035797648, guid: 8bc5334d8b2a72941b96f0b5c48a68ea,
        type: 3}
      propertyPath: m_LocalRotation.z
      value: -0
      objectReference: {fileID: 0}
    - target: {fileID: 39461560035797648, guid: 8bc5334d8b2a72941b96f0b5c48a68ea,
        type: 3}
      propertyPath: m_AnchoredPosition.x
      value: 399.99997
      objectReference: {fileID: 0}
    - target: {fileID: 39461560035797648, guid: 8bc5334d8b2a72941b96f0b5c48a68ea,
        type: 3}
      propertyPath: m_AnchoredPosition.y
      value: -95.783356
      objectReference: {fileID: 0}
    - target: {fileID: 39461560035797648, guid: 8bc5334d8b2a72941b96f0b5c48a68ea,
        type: 3}
      propertyPath: m_LocalEulerAnglesHint.x
      value: 0
      objectReference: {fileID: 0}
    - target: {fileID: 39461560035797648, guid: 8bc5334d8b2a72941b96f0b5c48a68ea,
        type: 3}
      propertyPath: m_LocalEulerAnglesHint.y
      value: 0
      objectReference: {fileID: 0}
    - target: {fileID: 39461560035797648, guid: 8bc5334d8b2a72941b96f0b5c48a68ea,
        type: 3}
      propertyPath: m_LocalEulerAnglesHint.z
      value: 0
      objectReference: {fileID: 0}
    - target: {fileID: 39461560035797649, guid: 8bc5334d8b2a72941b96f0b5c48a68ea,
        type: 3}
      propertyPath: enemy
      value: 
      objectReference: {fileID: 0}
    - target: {fileID: 39461560035797649, guid: 8bc5334d8b2a72941b96f0b5c48a68ea,
        type: 3}
      propertyPath: shooting
      value: 
      objectReference: {fileID: 0}
    - target: {fileID: 39461560035797649, guid: 8bc5334d8b2a72941b96f0b5c48a68ea,
        type: 3}
      propertyPath: audioSource
      value: 
      objectReference: {fileID: 2652796109670696530}
    - target: {fileID: 39461560035797649, guid: 8bc5334d8b2a72941b96f0b5c48a68ea,
        type: 3}
      propertyPath: noteCheckTrue
      value: 
      objectReference: {fileID: 0}
    - target: {fileID: 39461560035797649, guid: 8bc5334d8b2a72941b96f0b5c48a68ea,
        type: 3}
      propertyPath: noteValidator
      value: 
      objectReference: {fileID: 0}
    - target: {fileID: 39461560035797649, guid: 8bc5334d8b2a72941b96f0b5c48a68ea,
        type: 3}
      propertyPath: bpmAssistantAnim
      value: 
      objectReference: {fileID: 0}
    - target: {fileID: 39461560035797649, guid: 8bc5334d8b2a72941b96f0b5c48a68ea,
        type: 3}
      propertyPath: comboMeterSlider
      value: 
      objectReference: {fileID: 0}
    - target: {fileID: 39461560035797649, guid: 8bc5334d8b2a72941b96f0b5c48a68ea,
        type: 3}
      propertyPath: audioClips.Array.size
      value: 4
      objectReference: {fileID: 0}
    - target: {fileID: 39461560035797649, guid: 8bc5334d8b2a72941b96f0b5c48a68ea,
        type: 3}
      propertyPath: audioClips.Array.data[0]
      value: 
      objectReference: {fileID: 8300000, guid: 11a17fd4decdf2942972d1ef7b920550, type: 3}
    - target: {fileID: 39461560035797649, guid: 8bc5334d8b2a72941b96f0b5c48a68ea,
        type: 3}
      propertyPath: audioClips.Array.data[1]
      value: 
      objectReference: {fileID: 8300000, guid: 40e2102708a304142bb1dd237a744fdc, type: 3}
    - target: {fileID: 39461560035797649, guid: 8bc5334d8b2a72941b96f0b5c48a68ea,
        type: 3}
      propertyPath: audioClips.Array.data[2]
      value: 
      objectReference: {fileID: 8300000, guid: 46f44da6ff44b364cb5716d84b2cbcf7, type: 3}
    - target: {fileID: 39461560035797649, guid: 8bc5334d8b2a72941b96f0b5c48a68ea,
        type: 3}
      propertyPath: audioClips.Array.data[3]
      value: 
      objectReference: {fileID: 8300000, guid: 1c0b0b5f9a35bca44925310998e817d6, type: 3}
    - target: {fileID: 39461560035797663, guid: 8bc5334d8b2a72941b96f0b5c48a68ea,
        type: 3}
      propertyPath: m_Name
      value: MetronomeManager
      objectReference: {fileID: 0}
    - target: {fileID: 4440801132526933774, guid: 8bc5334d8b2a72941b96f0b5c48a68ea,
        type: 3}
      propertyPath: enemy
      value: 
      objectReference: {fileID: 0}
    - target: {fileID: 4440801132526933774, guid: 8bc5334d8b2a72941b96f0b5c48a68ea,
        type: 3}
      propertyPath: shooting
      value: 
      objectReference: {fileID: 0}
    - target: {fileID: 4440801132526933774, guid: 8bc5334d8b2a72941b96f0b5c48a68ea,
        type: 3}
      propertyPath: audioSource
      value: 
      objectReference: {fileID: 2652796109670696530}
    - target: {fileID: 4440801132526933774, guid: 8bc5334d8b2a72941b96f0b5c48a68ea,
        type: 3}
      propertyPath: noteCheckTrue
      value: 
      objectReference: {fileID: 0}
    - target: {fileID: 4440801132526933774, guid: 8bc5334d8b2a72941b96f0b5c48a68ea,
        type: 3}
      propertyPath: bpmAssistantAnim
      value: 
      objectReference: {fileID: 0}
    - target: {fileID: 4440801132526933774, guid: 8bc5334d8b2a72941b96f0b5c48a68ea,
        type: 3}
      propertyPath: comboMeterSlider
      value: 
      objectReference: {fileID: 0}
    - target: {fileID: 4440801132526933774, guid: 8bc5334d8b2a72941b96f0b5c48a68ea,
        type: 3}
      propertyPath: audioClips.Array.size
      value: 4
      objectReference: {fileID: 0}
    - target: {fileID: 4440801132526933774, guid: 8bc5334d8b2a72941b96f0b5c48a68ea,
        type: 3}
      propertyPath: audioClips.Array.data[0]
      value: 
      objectReference: {fileID: 8300000, guid: 11a17fd4decdf2942972d1ef7b920550, type: 3}
    - target: {fileID: 4440801132526933774, guid: 8bc5334d8b2a72941b96f0b5c48a68ea,
        type: 3}
      propertyPath: audioClips.Array.data[1]
      value: 
      objectReference: {fileID: 8300000, guid: 40e2102708a304142bb1dd237a744fdc, type: 3}
    - target: {fileID: 4440801132526933774, guid: 8bc5334d8b2a72941b96f0b5c48a68ea,
        type: 3}
      propertyPath: audioClips.Array.data[2]
      value: 
      objectReference: {fileID: 8300000, guid: 46f44da6ff44b364cb5716d84b2cbcf7, type: 3}
    - target: {fileID: 4440801132526933774, guid: 8bc5334d8b2a72941b96f0b5c48a68ea,
        type: 3}
      propertyPath: audioClips.Array.data[3]
      value: 
      objectReference: {fileID: 8300000, guid: 1c0b0b5f9a35bca44925310998e817d6, type: 3}
    - target: {fileID: 6198663170333800939, guid: 8bc5334d8b2a72941b96f0b5c48a68ea,
        type: 3}
      propertyPath: enemy
      value: 
      objectReference: {fileID: 0}
    - target: {fileID: 6198663170333800939, guid: 8bc5334d8b2a72941b96f0b5c48a68ea,
        type: 3}
      propertyPath: shooting
      value: 
      objectReference: {fileID: 0}
    - target: {fileID: 6198663170333800939, guid: 8bc5334d8b2a72941b96f0b5c48a68ea,
        type: 3}
      propertyPath: audioSource
      value: 
      objectReference: {fileID: 2652796109670696530}
    - target: {fileID: 6198663170333800939, guid: 8bc5334d8b2a72941b96f0b5c48a68ea,
        type: 3}
      propertyPath: noteCheckTrue
      value: 
      objectReference: {fileID: 0}
    - target: {fileID: 6198663170333800939, guid: 8bc5334d8b2a72941b96f0b5c48a68ea,
        type: 3}
      propertyPath: bpmAssistantAnim
      value: 
      objectReference: {fileID: 0}
    - target: {fileID: 6198663170333800939, guid: 8bc5334d8b2a72941b96f0b5c48a68ea,
        type: 3}
      propertyPath: comboMeterSlider
      value: 
      objectReference: {fileID: 0}
    - target: {fileID: 6198663170333800939, guid: 8bc5334d8b2a72941b96f0b5c48a68ea,
        type: 3}
      propertyPath: audioClips.Array.size
      value: 4
      objectReference: {fileID: 0}
    - target: {fileID: 6198663170333800939, guid: 8bc5334d8b2a72941b96f0b5c48a68ea,
        type: 3}
      propertyPath: audioClips.Array.data[0]
      value: 
      objectReference: {fileID: 8300000, guid: 11a17fd4decdf2942972d1ef7b920550, type: 3}
    - target: {fileID: 6198663170333800939, guid: 8bc5334d8b2a72941b96f0b5c48a68ea,
        type: 3}
      propertyPath: audioClips.Array.data[1]
      value: 
      objectReference: {fileID: 8300000, guid: 40e2102708a304142bb1dd237a744fdc, type: 3}
    - target: {fileID: 6198663170333800939, guid: 8bc5334d8b2a72941b96f0b5c48a68ea,
        type: 3}
      propertyPath: audioClips.Array.data[2]
      value: 
      objectReference: {fileID: 8300000, guid: 46f44da6ff44b364cb5716d84b2cbcf7, type: 3}
    - target: {fileID: 6198663170333800939, guid: 8bc5334d8b2a72941b96f0b5c48a68ea,
        type: 3}
      propertyPath: audioClips.Array.data[3]
      value: 
      objectReference: {fileID: 8300000, guid: 1c0b0b5f9a35bca44925310998e817d6, type: 3}
    m_RemovedComponents:
    - {fileID: 4440801132526933774, guid: 8bc5334d8b2a72941b96f0b5c48a68ea, type: 3}
    - {fileID: 6198663170333800939, guid: 8bc5334d8b2a72941b96f0b5c48a68ea, type: 3}
  m_SourcePrefab: {fileID: 100100000, guid: 8bc5334d8b2a72941b96f0b5c48a68ea, type: 3}
--- !u!82 &2652796109670696530 stripped
AudioSource:
  m_CorrespondingSourceObject: {fileID: -4769962906714323056, guid: 8bc5334d8b2a72941b96f0b5c48a68ea,
    type: 3}
  m_PrefabInstance: {fileID: 1809620232691843522}
  m_PrefabAsset: {fileID: 0}
