%YAML 1.1
%TAG !u! tag:unity3d.com,2011:
--- !u!1001 &7501161218900587984
PrefabInstance:
  m_ObjectHideFlags: 0
  serializedVersion: 2
  m_Modification:
    m_TransformParent: {fileID: 0}
    m_Modifications:
    - target: {fileID: 2185558391015515525, guid: 37e3ee6bfefcd6a4792153452b7f9de7,
        type: 3}
      propertyPath: lineOfSight
      value: 100
      objectReference: {fileID: 0}
    - target: {fileID: 2755733535990894057, guid: 37e3ee6bfefcd6a4792153452b7f9de7,
        type: 3}
      propertyPath: m_Name
      value: RangedEnemyEndless Variant 1
      objectReference: {fileID: 0}
    - target: {fileID: 2755733535990894057, guid: 37e3ee6bfefcd6a4792153452b7f9de7,
        type: 3}
      propertyPath: m_IsActive
      value: 1
      objectReference: {fileID: 0}
    - target: {fileID: 2755733535990894058, guid: 37e3ee6bfefcd6a4792153452b7f9de7,
        type: 3}
      propertyPath: m_Mass
      value: 1000
      objectReference: {fileID: 0}
    - target: {fileID: 2755733535990894058, guid: 37e3ee6bfefcd6a4792153452b7f9de7,
        type: 3}
      propertyPath: m_BodyType
      value: 1
      objectReference: {fileID: 0}
    - target: {fileID: 2755733535990894058, guid: 37e3ee6bfefcd6a4792153452b7f9de7,
        type: 3}
      propertyPath: m_UseAutoMass
      value: 0
      objectReference: {fileID: 0}
    - target: {fileID: 2755733535990894069, guid: 37e3ee6bfefcd6a4792153452b7f9de7,
        type: 3}
      propertyPath: bpm
      value: 
      objectReference: {fileID: 0}
    - target: {fileID: 2755733535990894069, guid: 37e3ee6bfefcd6a4792153452b7f9de7,
        type: 3}
      propertyPath: bulletSpeed
      value: 40
      objectReference: {fileID: 0}
    - target: {fileID: 2755733535990894069, guid: 37e3ee6bfefcd6a4792153452b7f9de7,
        type: 3}
      propertyPath: lineOfSight
      value: 70
      objectReference: {fileID: 0}
    - target: {fileID: 2755733535990894071, guid: 37e3ee6bfefcd6a4792153452b7f9de7,
        type: 3}
      propertyPath: m_RootOrder
      value: 0
      objectReference: {fileID: 0}
    - target: {fileID: 2755733535990894071, guid: 37e3ee6bfefcd6a4792153452b7f9de7,
        type: 3}
      propertyPath: m_LocalPosition.x
      value: -12.37
      objectReference: {fileID: 0}
    - target: {fileID: 2755733535990894071, guid: 37e3ee6bfefcd6a4792153452b7f9de7,
        type: 3}
      propertyPath: m_LocalPosition.y
      value: -7.52
      objectReference: {fileID: 0}
    - target: {fileID: 2755733535990894071, guid: 37e3ee6bfefcd6a4792153452b7f9de7,
        type: 3}
      propertyPath: m_LocalPosition.z
      value: -3.3798425
      objectReference: {fileID: 0}
    - target: {fileID: 2755733535990894071, guid: 37e3ee6bfefcd6a4792153452b7f9de7,
        type: 3}
      propertyPath: m_LocalRotation.w
      value: 1
      objectReference: {fileID: 0}
    - target: {fileID: 2755733535990894071, guid: 37e3ee6bfefcd6a4792153452b7f9de7,
        type: 3}
      propertyPath: m_LocalRotation.x
      value: 0
      objectReference: {fileID: 0}
    - target: {fileID: 2755733535990894071, guid: 37e3ee6bfefcd6a4792153452b7f9de7,
        type: 3}
      propertyPath: m_LocalRotation.y
      value: 0
      objectReference: {fileID: 0}
    - target: {fileID: 2755733535990894071, guid: 37e3ee6bfefcd6a4792153452b7f9de7,
        type: 3}
      propertyPath: m_LocalRotation.z
      value: 0
      objectReference: {fileID: 0}
    - target: {fileID: 2755733535990894071, guid: 37e3ee6bfefcd6a4792153452b7f9de7,
        type: 3}
      propertyPath: m_LocalEulerAnglesHint.x
      value: 0
      objectReference: {fileID: 0}
    - target: {fileID: 2755733535990894071, guid: 37e3ee6bfefcd6a4792153452b7f9de7,
        type: 3}
      propertyPath: m_LocalEulerAnglesHint.y
      value: 0
      objectReference: {fileID: 0}
    - target: {fileID: 2755733535990894071, guid: 37e3ee6bfefcd6a4792153452b7f9de7,
        type: 3}
      propertyPath: m_LocalEulerAnglesHint.z
      value: 0
      objectReference: {fileID: 0}
    m_RemovedComponents:
    - {fileID: 2185558391015515525, guid: 37e3ee6bfefcd6a4792153452b7f9de7, type: 3}
  m_SourcePrefab: {fileID: 100100000, guid: 37e3ee6bfefcd6a4792153452b7f9de7, type: 3}
--- !u!1 &5631522009950140473 stripped
GameObject:
  m_CorrespondingSourceObject: {fileID: 2755733535990894057, guid: 37e3ee6bfefcd6a4792153452b7f9de7,
    type: 3}
  m_PrefabInstance: {fileID: 7501161218900587984}
  m_PrefabAsset: {fileID: 0}
--- !u!114 &817739302011936938
MonoBehaviour:
  m_ObjectHideFlags: 0
  m_CorrespondingSourceObject: {fileID: 0}
  m_PrefabInstance: {fileID: 0}
  m_PrefabAsset: {fileID: 0}
  m_GameObject: {fileID: 5631522009950140473}
  m_Enabled: 1
  m_EditorHideFlags: 0
  m_Script: {fileID: 11500000, guid: a3b3393bbae0f3e4a8555fc52008a157, type: 3}
  m_Name: 
  m_EditorClassIdentifier: 
  lineOfSight: 70
  shootingRange: 6.5
  enemyBullet: {fileID: 4694749012116249290, guid: 4d81220414e3fe74e88f1cbd7aecc981,
    type: 3}
  enemyBulletParent: {fileID: 5631522010014566002}
  bulletSpeed: 10
  enemyShootingSound: {fileID: 8300000, guid: 0ea7fd7364f6d6a4da0edcb282e8cdf7, type: 3}
  enemyDeathSound: {fileID: 8300000, guid: 4897494096f6d92449ef27d3c93c04ac, type: 3}
--- !u!1 &5631522010014566002 stripped
GameObject:
  m_CorrespondingSourceObject: {fileID: 2755733535921222562, guid: 37e3ee6bfefcd6a4792153452b7f9de7,
    type: 3}
  m_PrefabInstance: {fileID: 7501161218900587984}
  m_PrefabAsset: {fileID: 0}
