%YAML 1.1
%TAG !u! tag:unity3d.com,2011:
--- !u!1001 &7501161218900587984
PrefabInstance:
  m_ObjectHideFlags: 0
  serializedVersion: 2
  m_Modification:
    m_TransformParent: {fileID: 0}
    m_Modifications:
    - target: {fileID: 2755733535990894057, guid: 37e3ee6bfefcd6a4792153452b7f9de7,
        type: 3}
      propertyPath: m_Name
      value: RangedEnemyEndless Variant
      objectReference: {fileID: 0}
    - target: {fileID: 2755733535990894057, guid: 37e3ee6bfefcd6a4792153452b7f9de7,
        type: 3}
      propertyPath: m_IsActive
      value: 1
      objectReference: {fileID: 0}
    - target: {fileID: 2755733535990894058, guid: 37e3ee6bfefcd6a4792153452b7f9de7,
        type: 3}
      propertyPath: m_Mass
      value: 1000
      objectReference: {fileID: 0}
    - target: {fileID: 2755733535990894058, guid: 37e3ee6bfefcd6a4792153452b7f9de7,
        type: 3}
      propertyPath: m_BodyType
      value: 1
      objectReference: {fileID: 0}
    - target: {fileID: 2755733535990894058, guid: 37e3ee6bfefcd6a4792153452b7f9de7,
        type: 3}
      propertyPath: m_UseAutoMass
      value: 0
      objectReference: {fileID: 0}
    - target: {fileID: 2755733535990894069, guid: 37e3ee6bfefcd6a4792153452b7f9de7,
        type: 3}
      propertyPath: bpm
      value: 
      objectReference: {fileID: 0}
    - target: {fileID: 2755733535990894069, guid: 37e3ee6bfefcd6a4792153452b7f9de7,
        type: 3}
      propertyPath: bulletSpeed
      value: 40
      objectReference: {fileID: 0}
    - target: {fileID: 2755733535990894069, guid: 37e3ee6bfefcd6a4792153452b7f9de7,
        type: 3}
      propertyPath: lineOfSight
      value: 70
      objectReference: {fileID: 0}
    - target: {fileID: 2755733535990894071, guid: 37e3ee6bfefcd6a4792153452b7f9de7,
        type: 3}
      propertyPath: m_RootOrder
      value: 0
      objectReference: {fileID: 0}
    - target: {fileID: 2755733535990894071, guid: 37e3ee6bfefcd6a4792153452b7f9de7,
        type: 3}
      propertyPath: m_LocalPosition.x
      value: -12.37
      objectReference: {fileID: 0}
    - target: {fileID: 2755733535990894071, guid: 37e3ee6bfefcd6a4792153452b7f9de7,
        type: 3}
      propertyPath: m_LocalPosition.y
      value: -7.52
      objectReference: {fileID: 0}
    - target: {fileID: 2755733535990894071, guid: 37e3ee6bfefcd6a4792153452b7f9de7,
        type: 3}
      propertyPath: m_LocalPosition.z
      value: -3.3798425
      objectReference: {fileID: 0}
    - target: {fileID: 2755733535990894071, guid: 37e3ee6bfefcd6a4792153452b7f9de7,
        type: 3}
      propertyPath: m_LocalRotation.w
      value: 1
      objectReference: {fileID: 0}
    - target: {fileID: 2755733535990894071, guid: 37e3ee6bfefcd6a4792153452b7f9de7,
        type: 3}
      propertyPath: m_LocalRotation.x
      value: 0
      objectReference: {fileID: 0}
    - target: {fileID: 2755733535990894071, guid: 37e3ee6bfefcd6a4792153452b7f9de7,
        type: 3}
      propertyPath: m_LocalRotation.y
      value: 0
      objectReference: {fileID: 0}
    - target: {fileID: 2755733535990894071, guid: 37e3ee6bfefcd6a4792153452b7f9de7,
        type: 3}
      propertyPath: m_LocalRotation.z
      value: 0
      objectReference: {fileID: 0}
    - target: {fileID: 2755733535990894071, guid: 37e3ee6bfefcd6a4792153452b7f9de7,
        type: 3}
      propertyPath: m_LocalEulerAnglesHint.x
      value: 0
      objectReference: {fileID: 0}
    - target: {fileID: 2755733535990894071, guid: 37e3ee6bfefcd6a4792153452b7f9de7,
        type: 3}
      propertyPath: m_LocalEulerAnglesHint.y
      value: 0
      objectReference: {fileID: 0}
    - target: {fileID: 2755733535990894071, guid: 37e3ee6bfefcd6a4792153452b7f9de7,
        type: 3}
      propertyPath: m_LocalEulerAnglesHint.z
      value: 0
      objectReference: {fileID: 0}
    m_RemovedComponents: []
  m_SourcePrefab: {fileID: 100100000, guid: 37e3ee6bfefcd6a4792153452b7f9de7, type: 3}
